%FSDAX44Y44*%
%MOMM*%
%SFA1B1*%

%IPPOS*%
%AMD117*
4,1,4,-0.899160,0.449580,-0.899160,-0.449580,0.899160,-0.449580,0.899160,0.449580,-0.899160,0.449580,0.0*
%
%AMD118*
4,1,4,-0.998220,0.749300,-0.998220,-0.749300,0.998220,-0.749300,0.998220,0.749300,-0.998220,0.749300,0.0*
%
%AMD119*
4,1,4,-0.449580,0.899160,-0.449580,-0.899160,0.449580,-0.899160,0.449580,0.899160,-0.449580,0.899160,0.0*
%
%AMD120*
4,1,4,-0.398780,0.449580,-0.398780,-0.449580,0.398780,-0.449580,0.398780,0.449580,-0.398780,0.449580,0.0*
%
%AMD121*
4,1,4,-0.449580,0.398780,-0.449580,-0.398780,0.449580,-0.398780,0.449580,0.398780,-0.449580,0.398780,0.0*
%
%AMD122*
4,1,4,-0.474980,0.698500,-0.474980,-0.698500,0.474980,-0.698500,0.474980,0.698500,-0.474980,0.698500,0.0*
%
%AMD123*
4,1,4,-0.497840,0.848360,-0.497840,-0.848360,0.497840,-0.848360,0.497840,0.848360,-0.497840,0.848360,0.0*
%
%AMD124*
4,1,4,-0.848360,0.497840,-0.848360,-0.497840,0.848360,-0.497840,0.848360,0.497840,-0.848360,0.497840,0.0*
%
%AMD125*
4,1,4,-0.749300,0.998220,-0.749300,-0.998220,0.749300,-0.998220,0.749300,0.998220,-0.749300,0.998220,0.0*
%
%AMD126*
4,1,4,-0.698500,0.474980,-0.698500,-0.474980,0.698500,-0.474980,0.698500,0.474980,-0.698500,0.474980,0.0*
%
%AMD127*
4,1,4,-0.848360,1.099820,-0.848360,-1.099820,0.848360,-1.099820,0.848360,1.099820,-0.848360,1.099820,0.0*
%
%AMD128*
4,1,8,-0.398780,0.398780,-0.398780,-0.398780,-0.200660,-0.599440,0.200660,-0.599440,0.398780,-0.398780,0.398780,0.398780,0.200660,0.599440,-0.200660,0.599440,-0.398780,0.398780,0.0*
1,1,0.400000,-0.200660,0.398780*
1,1,0.400000,-0.200660,-0.398780*
1,1,0.400000,0.200660,-0.398780*
1,1,0.400000,0.200660,0.398780*
%
%AMD129*
4,1,4,-0.299720,0.899160,-0.299720,-0.899160,0.299720,-0.899160,0.299720,0.899160,-0.299720,0.899160,0.0*
%
%AMD130*
4,1,4,-0.353060,1.013460,-0.353060,-1.013460,0.353060,-1.013460,0.353060,1.013460,-0.353060,1.013460,0.0*
%
%AMD131*
4,1,4,-1.899920,1.399540,-1.899920,-1.399540,1.899920,-1.399540,1.899920,1.399540,-1.899920,1.399540,0.0*
%
%AMD132*
4,1,4,-0.899160,0.299720,-0.899160,-0.299720,0.899160,-0.299720,0.899160,0.299720,-0.899160,0.299720,0.0*
%
%AMD133*
4,1,4,-1.562100,1.460500,-1.562100,-1.460500,1.562100,-1.460500,1.562100,1.460500,-1.562100,1.460500,0.0*
%
%AMD134*
4,1,4,-1.562100,1.435100,-1.562100,-1.435100,1.562100,-1.435100,1.562100,1.435100,-1.562100,1.435100,0.0*
%
%AMD135*
4,1,4,-1.584960,1.435100,-1.584960,-1.435100,1.584960,-1.435100,1.584960,1.435100,-1.584960,1.435100,0.0*
%
%AMD136*
4,1,4,-1.584960,1.460500,-1.584960,-1.460500,1.584960,-1.460500,1.584960,1.460500,-1.584960,1.460500,0.0*
%
%AMD137*
4,1,4,-1.460500,1.562100,-1.460500,-1.562100,1.460500,-1.562100,1.460500,1.562100,-1.460500,1.562100,0.0*
%
%AMD138*
4,1,4,-1.435100,1.562100,-1.435100,-1.562100,1.435100,-1.562100,1.435100,1.562100,-1.435100,1.562100,0.0*
%
%AMD139*
4,1,4,-1.435100,1.584960,-1.435100,-1.584960,1.435100,-1.584960,1.435100,1.584960,-1.435100,1.584960,0.0*
%
%AMD140*
4,1,4,-1.460500,1.584960,-1.460500,-1.584960,1.460500,-1.584960,1.460500,1.584960,-1.460500,1.584960,0.0*
%
%AMD141*
4,1,4,-1.399540,0.698500,-1.399540,-0.698500,1.399540,-0.698500,1.399540,0.698500,-1.399540,0.698500,0.0*
%
%AMD142*
4,1,4,-0.698500,1.399540,-0.698500,-1.399540,0.698500,-1.399540,0.698500,1.399540,-0.698500,1.399540,0.0*
%
%AMD143*
4,1,4,-0.949960,0.599440,-0.949960,-0.599440,0.949960,-0.599440,0.949960,0.599440,-0.949960,0.599440,0.0*
%
%AMD144*
4,1,4,-0.388620,0.647700,-0.388620,-0.647700,0.388620,-0.647700,0.388620,0.647700,-0.388620,0.647700,0.0*
%
G04~CAMADD=117~9~0.0~0.0~354.3~708.7~0.0~0.0~0~0.0~0.0~0.0~0.0~0~0.0~0.0~0.0~0.0~0~0.0~0.0~0.0~90.0~708.0~354.0*
%ADD117D117*%
G04~CAMADD=118~9~0.0~0.0~590.5~787.4~0.0~0.0~0~0.0~0.0~0.0~0.0~0~0.0~0.0~0.0~0.0~0~0.0~0.0~0.0~90.0~786.0~590.0*
%ADD118D118*%
G04~CAMADD=119~9~0.0~0.0~708.7~354.3~0.0~0.0~0~0.0~0.0~0.0~0.0~0~0.0~0.0~0.0~0.0~0~0.0~0.0~0.0~90.0~354.0~708.0*
%ADD119D119*%
G04~CAMADD=120~9~0.0~0.0~354.3~315.0~0.0~0.0~0~0.0~0.0~0.0~0.0~0~0.0~0.0~0.0~0.0~0~0.0~0.0~0.0~90.0~314.0~354.0*
%ADD120D120*%
G04~CAMADD=121~9~0.0~0.0~315.0~354.3~0.0~0.0~0~0.0~0.0~0.0~0.0~0~0.0~0.0~0.0~0.0~0~0.0~0.0~0.0~90.0~354.0~314.0*
%ADD121D121*%
G04~CAMADD=122~9~0.0~0.0~551.2~374.0~0.0~0.0~0~0.0~0.0~0.0~0.0~0~0.0~0.0~0.0~0.0~0~0.0~0.0~0.0~90.0~374.0~550.0*
%ADD122D122*%
G04~CAMADD=123~9~0.0~0.0~669.3~393.7~0.0~0.0~0~0.0~0.0~0.0~0.0~0~0.0~0.0~0.0~0.0~0~0.0~0.0~0.0~90.0~392.0~668.0*
%ADD123D123*%
G04~CAMADD=124~9~0.0~0.0~393.7~669.3~0.0~0.0~0~0.0~0.0~0.0~0.0~0~0.0~0.0~0.0~0.0~0~0.0~0.0~0.0~90.0~668.0~392.0*
%ADD124D124*%
G04~CAMADD=125~9~0.0~0.0~787.4~590.5~0.0~0.0~0~0.0~0.0~0.0~0.0~0~0.0~0.0~0.0~0.0~0~0.0~0.0~0.0~90.0~590.0~786.0*
%ADD125D125*%
G04~CAMADD=126~9~0.0~0.0~374.0~551.2~0.0~0.0~0~0.0~0.0~0.0~0.0~0~0.0~0.0~0.0~0.0~0~0.0~0.0~0.0~90.0~550.0~374.0*
%ADD126D126*%
G04~CAMADD=127~9~0.0~0.0~866.1~669.3~0.0~0.0~0~0.0~0.0~0.0~0.0~0~0.0~0.0~0.0~0.0~0~0.0~0.0~0.0~90.0~668.0~866.0*
%ADD127D127*%
G04~CAMADD=128~8~0.0~0.0~472.4~315.0~78.7~0.0~15~0.0~0.0~0.0~0.0~0~0.0~0.0~0.0~0.0~0~0.0~0.0~0.0~90.0~314.0~472.0*
%ADD128D128*%
G04~CAMADD=129~9~0.0~0.0~708.7~236.2~0.0~0.0~0~0.0~0.0~0.0~0.0~0~0.0~0.0~0.0~0.0~0~0.0~0.0~0.0~90.0~236.0~708.0*
%ADD129D129*%
G04~CAMADD=130~9~0.0~0.0~800.0~280.0~0.0~0.0~0~0.0~0.0~0.0~0.0~0~0.0~0.0~0.0~0.0~0~0.0~0.0~0.0~90.0~278.0~798.0*
%ADD130D130*%
G04~CAMADD=131~9~0.0~0.0~1102.4~1496.1~0.0~0.0~0~0.0~0.0~0.0~0.0~0~0.0~0.0~0.0~0.0~0~0.0~0.0~0.0~90.0~1496.0~1102.0*
%ADD131D131*%
G04~CAMADD=132~9~0.0~0.0~236.2~708.7~0.0~0.0~0~0.0~0.0~0.0~0.0~0~0.0~0.0~0.0~0.0~0~0.0~0.0~0.0~90.0~708.0~236.0*
%ADD132D132*%
G04~CAMADD=133~9~0.0~0.0~1151.6~1230.3~0.0~0.0~0~0.0~0.0~0.0~0.0~0~0.0~0.0~0.0~0.0~0~0.0~0.0~0.0~90.0~1230.0~1150.0*
%ADD133D133*%
G04~CAMADD=134~9~0.0~0.0~1131.9~1230.3~0.0~0.0~0~0.0~0.0~0.0~0.0~0~0.0~0.0~0.0~0.0~0~0.0~0.0~0.0~90.0~1230.0~1130.0*
%ADD134D134*%
G04~CAMADD=135~9~0.0~0.0~1131.9~1250.0~0.0~0.0~0~0.0~0.0~0.0~0.0~0~0.0~0.0~0.0~0.0~0~0.0~0.0~0.0~90.0~1248.0~1130.0*
%ADD135D135*%
G04~CAMADD=136~9~0.0~0.0~1151.6~1250.0~0.0~0.0~0~0.0~0.0~0.0~0.0~0~0.0~0.0~0.0~0.0~0~0.0~0.0~0.0~90.0~1248.0~1150.0*
%ADD136D136*%
G04~CAMADD=137~9~0.0~0.0~1230.3~1151.6~0.0~0.0~0~0.0~0.0~0.0~0.0~0~0.0~0.0~0.0~0.0~0~0.0~0.0~0.0~90.0~1150.0~1230.0*
%ADD137D137*%
G04~CAMADD=138~9~0.0~0.0~1230.3~1131.9~0.0~0.0~0~0.0~0.0~0.0~0.0~0~0.0~0.0~0.0~0.0~0~0.0~0.0~0.0~90.0~1130.0~1230.0*
%ADD138D138*%
G04~CAMADD=139~9~0.0~0.0~1250.0~1131.9~0.0~0.0~0~0.0~0.0~0.0~0.0~0~0.0~0.0~0.0~0.0~0~0.0~0.0~0.0~90.0~1130.0~1248.0*
%ADD139D139*%
G04~CAMADD=140~9~0.0~0.0~1250.0~1151.6~0.0~0.0~0~0.0~0.0~0.0~0.0~0~0.0~0.0~0.0~0.0~0~0.0~0.0~0.0~90.0~1150.0~1248.0*
%ADD140D140*%
G04~CAMADD=141~9~0.0~0.0~551.2~1102.4~0.0~0.0~0~0.0~0.0~0.0~0.0~0~0.0~0.0~0.0~0.0~0~0.0~0.0~0.0~90.0~1102.0~550.0*
%ADD141D141*%
G04~CAMADD=142~9~0.0~0.0~1102.4~551.2~0.0~0.0~0~0.0~0.0~0.0~0.0~0~0.0~0.0~0.0~0.0~0~0.0~0.0~0.0~90.0~550.0~1102.0*
%ADD142D142*%
G04~CAMADD=143~9~0.0~0.0~472.4~748.0~0.0~0.0~0~0.0~0.0~0.0~0.0~0~0.0~0.0~0.0~0.0~0~0.0~0.0~0.0~90.0~748.0~472.0*
%ADD143D143*%
G04~CAMADD=144~9~0.0~0.0~511.8~307.1~0.0~0.0~0~0.0~0.0~0.0~0.0~0~0.0~0.0~0.0~0.0~0~0.0~0.0~0.0~90.0~306.0~510.0*
%ADD144D144*%
%LNrc100-150w_2.0_sngl_gerber-0-1*%
%LPD*%
G54D117*
X02513080Y00933235D03*
Y00962235D03*
X02463296Y00933235D03*
Y00962235D03*
X02488461Y00933235D03*
Y00962235D03*
X02509965Y01475735D03*
Y01446735D03*
X02535189Y01475735D03*
Y01446735D03*
X02560412Y01475735D03*
Y01446735D03*
X02594212Y01473735D03*
Y01444735D03*
X02644296Y01473735D03*
Y01444735D03*
X02413834Y00933235D03*
Y00962235D03*
X02438295Y00933235D03*
Y00962235D03*
X02612986Y00616770D03*
Y00587770D03*
X02245296Y01443235D03*
Y01472235D03*
Y01401235D03*
Y01430235D03*
X02619296Y01473735D03*
Y01444735D03*
X02484742Y01475735D03*
Y01446735D03*
X02459518Y01475735D03*
Y01446735D03*
X02434295Y01475735D03*
Y01446735D03*
G54D118*
X02584436Y00883235D03*
Y00853235D03*
X02613296Y01545235D03*
Y01575235D03*
X02708796Y01039023D03*
Y01009023D03*
G54D119*
X02396779Y00791235D03*
X02425779D03*
X02746795Y00636235D03*
X02717796D03*
X02680943Y00974637D03*
X02651943D03*
X02519651Y01173983D03*
X02548650D03*
X02489795Y00795235D03*
X02518796D03*
X02717796Y00611235D03*
X02746795D03*
X02746635Y00561235D03*
X02717636D03*
X02746635Y00535840D03*
X02717636D03*
X02746795Y00586235D03*
X02717796D03*
X02510795Y00767235D03*
X02481795D03*
X02464779Y00762235D03*
X02435779D03*
X02422779D03*
X02393779D03*
X02673779Y00468735D03*
X02644779D03*
X02652796Y00443235D03*
X02623795D03*
X02467779Y00791235D03*
X02438779D03*
X02387795Y00904235D03*
X02416796D03*
X02362795Y00879235D03*
X02391796D03*
X02341296Y00904235D03*
X02370296D03*
X02659279Y00407235D03*
X02630279D03*
X02700796Y00435235D03*
X02671796D03*
G54D120*
X02287779Y00993957D03*
X02274779D03*
X02266998Y01122235D03*
X02279998D03*
X02253597Y01088235D03*
X02266596D03*
X02266997Y01156235D03*
X02279997D03*
X02305166Y01114235D03*
X02318166D03*
X02335796Y01110235D03*
X02348796D03*
X02335850Y01152235D03*
X02348850D03*
X02253908Y01105235D03*
X02266907D03*
X02305229Y01097652D03*
X02318229D03*
X02329351Y00990152D03*
X02342349D03*
X02335796Y01135235D03*
X02348796D03*
X02391296Y00956235D03*
X02378296D03*
X02349296Y01448041D03*
X02336296D03*
X02326166Y01248235D03*
X02313166D03*
X02298796Y01403235D03*
X02285796D03*
Y01420235D03*
X02298796D03*
X02349296Y01428235D03*
X02336296D03*
X02281278Y01248235D03*
X02294278D03*
X02262067Y01260899D03*
X02249067D03*
Y01279564D03*
X02262067D03*
X02348850Y01093652D03*
X02335851D03*
X02266997Y01139235D03*
X02279997D03*
X02644779Y00790235D03*
X02631778D03*
X02648779Y00598340D03*
X02661779D03*
X02592796Y00759235D03*
X02573796D03*
X02583296Y00779235D03*
X02514423Y00714235D03*
X02501423D03*
X02385125Y01353343D03*
X02398124D03*
X02648779Y00618985D03*
X02661779D03*
X02618795Y00718735D03*
X02605796D03*
X02592296Y00676235D03*
X02605296D03*
X02634795Y01003735D03*
X02647796D03*
X02592296Y00657185D03*
X02605296D03*
X02631778Y00718735D03*
X02644779D03*
X02605296Y00696235D03*
X02592296D03*
X02641795Y00562235D03*
X02654796D03*
X02668529Y00637235D03*
X02655528D03*
X02670796Y00718735D03*
X02657796D03*
X02287864Y00977235D03*
X02274864D03*
X02247795Y00994235D03*
X02260795D03*
X02247795Y00977235D03*
X02260795D03*
X02729796Y00759735D03*
X02742795D03*
X02321253Y01266235D03*
X02334252D03*
X02248795Y01238235D03*
X02261795D03*
X02274511Y00960235D03*
X02287511D03*
X02237205Y00907235D03*
X02250204D03*
X02514423Y00697235D03*
X02501423D03*
X02562796D03*
X02549796D03*
X02654296Y00523235D03*
X02641296D03*
G54D121*
X02318329Y01152735D03*
X02318330Y01139735D03*
X02393296Y01108735D03*
Y01095735D03*
X02683546Y00627642D03*
Y00640642D03*
X02559295Y00779735D03*
Y00766735D03*
X02267957Y00945729D03*
Y00926729D03*
X02247958Y00936229D03*
X02400296Y01326076D03*
X02380296Y01335576D03*
Y01316576D03*
X02678330Y01459698D03*
X02678331Y01446699D03*
X02695295D03*
Y01459698D03*
X02712756D03*
Y01446699D03*
X02250404Y01142485D03*
Y01155485D03*
G54D122*
X02395545Y01063235D03*
X02377046D03*
X02573046Y00718735D03*
X02591546D03*
X02408400Y01296235D03*
X02389901D03*
X02642139Y00543125D03*
X02660639D03*
X02298854Y01446735D03*
X02280354D03*
X02502046Y00677505D03*
X02520545D03*
G54D123*
X02590796Y00805235D03*
X02557796D03*
X02500795Y00744235D03*
X02533796D03*
X02638296Y00771235D03*
X02605296D03*
X02558779Y00740735D03*
X02591779D03*
X02265075Y00907235D03*
X02298075D03*
X02466796Y01349066D03*
X02433796D03*
X02367795Y01041218D03*
X02400796D03*
X02683586Y00757235D03*
X02716585D03*
X02674685Y00502744D03*
X02641685D03*
G54D124*
X02532296Y00693362D03*
Y00726362D03*
X02360528Y01324735D03*
Y01357735D03*
X02616064Y00976735D03*
Y01009735D03*
G54D125*
X02571295Y00671155D03*
X02541296D03*
X02288186Y00879235D03*
X02258186D03*
X02467932Y01566985D03*
X02437932D03*
X02434295Y01320235D03*
X02464296D03*
X02434295Y01289235D03*
X02464296D03*
X02458651Y01173952D03*
X02488650D03*
X02556295Y00601235D03*
X02586296D03*
X02612984Y00743735D03*
X02642986D03*
G54D126*
X02287973Y00926985D03*
Y00945485D03*
X02245279Y01384485D03*
Y01365985D03*
X02667296Y00771484D03*
Y00752985D03*
X02593296Y00985985D03*
Y01004485D03*
X02268296Y01423485D03*
Y01404985D03*
G54D127*
X02399257Y01473235D03*
Y01429235D03*
G54D128*
X02305796Y01167795D03*
X02293096D03*
Y01230675D03*
X02305796D03*
G54D129*
X02273301Y01321235D03*
X02311400Y01375235D03*
X02298701D03*
X02286001D03*
X02273301D03*
X02311400Y01321235D03*
X02298701D03*
X02286001D03*
G54D130*
X02343818Y01067822D03*
X02331118D03*
X02318418D03*
X02305718D03*
X02293018D03*
X02280318D03*
X02267618D03*
X02254918D03*
X02343818Y01014482D03*
X02331118D03*
X02318418D03*
X02305718D03*
X02293018D03*
X02280318D03*
X02267618D03*
X02254918D03*
G54D131*
X02440063Y00624842D03*
Y00552842D03*
X02370296Y00679648D03*
Y00607648D03*
G54D132*
X02631064Y00695285D03*
X02685065Y00657185D03*
Y00669885D03*
Y00682585D03*
Y00695285D03*
X02631064Y00657185D03*
Y00669885D03*
Y00682585D03*
G54D133*
X02552403Y00557715D03*
G54D134*
X02552403Y00518465D03*
X02481654Y01122610D03*
G54D135*
X02514904Y00518468D03*
X02519154Y01122610D03*
G54D136*
X02514904Y00557715D03*
G54D133*
X02481654Y01083360D03*
G54D136*
X02519154Y01083360D03*
G54D137*
X02669153Y01101825D03*
X02740671Y00842610D03*
G54D138*
X02629904Y01101825D03*
X02701421Y00842610D03*
G54D139*
X02629904Y01139326D03*
X02701421Y00880110D03*
G54D140*
X02669153Y01139325D03*
X02740671Y00880110D03*
G54D141*
X02607778Y00515340D03*
Y00561340D03*
X02426278Y01125735D03*
Y01079735D03*
G54D142*
X02626778Y01046451D03*
X02672779D03*
X02698295Y00787235D03*
X02744296D03*
G54D143*
X02291548Y01267235D03*
G54D144*
X02300548Y01293235D03*
X02282548D03*
G54D117*
X01958074Y00933238D03*
Y00962238D03*
X01908290Y00933238D03*
Y00962238D03*
X01933456Y00933238D03*
Y00962238D03*
X01954959Y01475738D03*
Y01446738D03*
X01980183Y01475738D03*
Y01446738D03*
X02005406Y01475738D03*
Y01446738D03*
X02039206Y01473738D03*
Y01444738D03*
X02089290Y01473738D03*
Y01444738D03*
X01858829Y00933238D03*
Y00962238D03*
X01883290Y00933238D03*
Y00962238D03*
X02057981Y00616773D03*
Y00587773D03*
X01690290Y01443238D03*
Y01472238D03*
Y01401238D03*
Y01430238D03*
X02064290Y01473738D03*
Y01444738D03*
X01929736Y01475738D03*
Y01446738D03*
X01904513Y01475738D03*
Y01446738D03*
X01879290Y01475738D03*
Y01446738D03*
G54D118*
X02029430Y00883238D03*
Y00853238D03*
X02058290Y01545238D03*
Y01575238D03*
X02153790Y01039026D03*
Y01009026D03*
G54D119*
X01841773Y00791238D03*
X01870773D03*
X02191790Y00636238D03*
X02162790D03*
X02125938Y00974640D03*
X02096938D03*
X01964645Y01173986D03*
X01993644D03*
X01934790Y00795238D03*
X01963790D03*
X02162790Y00611238D03*
X02191790D03*
X02191630Y00561238D03*
X02162630D03*
X02191630Y00535843D03*
X02162630D03*
X02191790Y00586238D03*
X02162790D03*
X01955790Y00767238D03*
X01926790D03*
X01909773Y00762238D03*
X01880773D03*
X01867773D03*
X01838773D03*
X02118773Y00468738D03*
X02089773D03*
X02097790Y00443238D03*
X02068790D03*
X01912773Y00791238D03*
X01883773D03*
X01832790Y00904238D03*
X01861790D03*
X01807790Y00879238D03*
X01836790D03*
X01786290Y00904238D03*
X01815290D03*
X02104273Y00407238D03*
X02075273D03*
X02145790Y00435238D03*
X02116790D03*
G54D120*
X01732773Y00993960D03*
X01719773D03*
X01711992Y01122238D03*
X01724992D03*
X01698591Y01088238D03*
X01711590D03*
X01711991Y01156238D03*
X01724991D03*
X01750161Y01114238D03*
X01763160D03*
X01780790Y01110238D03*
X01793790D03*
X01780844Y01152238D03*
X01793844D03*
X01698903Y01105238D03*
X01711902D03*
X01750223Y01097655D03*
X01763223D03*
X01774345Y00990155D03*
X01787344D03*
X01780790Y01135238D03*
X01793790D03*
X01836290Y00956238D03*
X01823290D03*
X01794290Y01448044D03*
X01781290D03*
X01771160Y01248238D03*
X01758160D03*
X01743790Y01403238D03*
X01730790D03*
Y01420238D03*
X01743790D03*
X01794290Y01428238D03*
X01781290D03*
X01726273Y01248238D03*
X01739273D03*
X01707062Y01260902D03*
X01694062D03*
Y01279567D03*
X01707062D03*
X01793844Y01093655D03*
X01780845D03*
X01711991Y01139238D03*
X01724991D03*
X02089773Y00790238D03*
X02076773D03*
X02093773Y00598343D03*
X02106773D03*
X02037790Y00759238D03*
X02018790D03*
X02028290Y00779238D03*
X01959417Y00714238D03*
X01946417D03*
X01830119Y01353346D03*
X01843118D03*
X02093773Y00618988D03*
X02106773D03*
X02063790Y00718738D03*
X02050790D03*
X02037290Y00676238D03*
X02050290D03*
X02079790Y01003738D03*
X02092790D03*
X02037290Y00657188D03*
X02050290D03*
X02076773Y00718738D03*
X02089773D03*
X02050290Y00696238D03*
X02037290D03*
X02086790Y00562238D03*
X02099790D03*
X02113523Y00637238D03*
X02100523D03*
X02115790Y00718738D03*
X02102790D03*
X01732859Y00977238D03*
X01719859D03*
X01692790Y00994238D03*
X01705790D03*
X01692790Y00977238D03*
X01705790D03*
X02174790Y00759738D03*
X02187790D03*
X01766247Y01266238D03*
X01779247D03*
X01693790Y01238238D03*
X01706790D03*
X01719505Y00960238D03*
X01732505D03*
X01682199Y00907238D03*
X01695198D03*
X01959417Y00697238D03*
X01946417D03*
X02007790D03*
X01994790D03*
X02099290Y00523238D03*
X02086290D03*
G54D121*
X01763324Y01152738D03*
X01763325Y01139738D03*
X01838290Y01108738D03*
Y01095738D03*
X02128540Y00627645D03*
Y00640645D03*
X02004290Y00779738D03*
Y00766738D03*
X01712952Y00945732D03*
Y00926732D03*
X01692952Y00936232D03*
X01845290Y01326079D03*
X01825290Y01335579D03*
Y01316579D03*
X02123324Y01459701D03*
X02123325Y01446702D03*
X02140290D03*
Y01459701D03*
X02157750D03*
Y01446702D03*
X01695398Y01142488D03*
Y01155488D03*
G54D122*
X01840540Y01063238D03*
X01822040D03*
X02018040Y00718738D03*
X02036540D03*
X01853394Y01296238D03*
X01834895D03*
X02087133Y00543128D03*
X02105633D03*
X01743848Y01446738D03*
X01725349D03*
X01947040Y00677508D03*
X01965540D03*
G54D123*
X02035790Y00805238D03*
X02002790D03*
X01945790Y00744238D03*
X01978790D03*
X02083290Y00771238D03*
X02050290D03*
X02003773Y00740738D03*
X02036773D03*
X01710069Y00907238D03*
X01743069D03*
X01911790Y01349069D03*
X01878790D03*
X01812790Y01041221D03*
X01845790D03*
X02128580Y00757238D03*
X02161580D03*
X02119679Y00502747D03*
X02086680D03*
G54D124*
X01977290Y00693365D03*
Y00726365D03*
X01805522Y01324738D03*
Y01357738D03*
X02061059Y00976738D03*
Y01009738D03*
G54D125*
X02016290Y00671158D03*
X01986290D03*
X01733180Y00879238D03*
X01703180D03*
X01912927Y01566988D03*
X01882927D03*
X01879290Y01320238D03*
X01909290D03*
X01879290Y01289238D03*
X01909290D03*
X01903645Y01173955D03*
X01933645D03*
X02001290Y00601238D03*
X02031290D03*
X02057979Y00743738D03*
X02087980D03*
G54D126*
X01732967Y00926988D03*
Y00945488D03*
X01690273Y01384488D03*
Y01365988D03*
X02112290Y00771487D03*
Y00752988D03*
X02038290Y00985988D03*
Y01004488D03*
X01713290Y01423488D03*
Y01404988D03*
G54D127*
X01844251Y01473238D03*
Y01429238D03*
G54D128*
X01750790Y01167798D03*
X01738090D03*
Y01230678D03*
X01750790D03*
G54D129*
X01718295Y01321238D03*
X01756394Y01375238D03*
X01743695D03*
X01730995D03*
X01718295D03*
X01756394Y01321238D03*
X01743695D03*
X01730995D03*
G54D130*
X01788812Y01067825D03*
X01776112D03*
X01763412D03*
X01750712D03*
X01738012D03*
X01725312D03*
X01712612D03*
X01699912D03*
X01788812Y01014485D03*
X01776112D03*
X01763412D03*
X01750712D03*
X01738012D03*
X01725312D03*
X01712612D03*
X01699912D03*
G54D131*
X01885057Y00624845D03*
Y00552845D03*
X01815290Y00679651D03*
Y00607651D03*
G54D132*
X02076059Y00695288D03*
X02130059Y00657188D03*
Y00669888D03*
Y00682588D03*
Y00695288D03*
X02076059Y00657188D03*
Y00669888D03*
Y00682588D03*
G54D133*
X01997398Y00557718D03*
G54D134*
X01997398Y00518468D03*
X01926648Y01122613D03*
G54D135*
X01959898Y00518471D03*
X01964148Y01122613D03*
G54D136*
X01959898Y00557718D03*
G54D133*
X01926648Y01083363D03*
G54D136*
X01964148Y01083363D03*
G54D137*
X02114147Y01101828D03*
X02185665Y00842613D03*
G54D138*
X02074898Y01101828D03*
X02146415Y00842613D03*
G54D139*
X02074898Y01139329D03*
X02146415Y00880113D03*
G54D140*
X02114147Y01139328D03*
X02185665Y00880113D03*
G54D141*
X02052773Y00515343D03*
Y00561343D03*
X01871273Y01125738D03*
Y01079738D03*
G54D142*
X02071773Y01046454D03*
X02117773D03*
X02143290Y00787238D03*
X02189290D03*
G54D143*
X01736543Y01267238D03*
G54D144*
X01745543Y01293238D03*
X01727543D03*
G54D117*
X01403091Y00933245D03*
Y00962245D03*
X01353307Y00933245D03*
Y00962245D03*
X01378473Y00933245D03*
Y00962245D03*
X01399976Y01475745D03*
Y01446745D03*
X01425200Y01475745D03*
Y01446745D03*
X01450423Y01475745D03*
Y01446745D03*
X01484223Y01473745D03*
Y01444745D03*
X01534307Y01473745D03*
Y01444745D03*
X01303846Y00933245D03*
Y00962245D03*
X01328307Y00933245D03*
Y00962245D03*
X01502998Y00616780D03*
Y00587780D03*
X01135307Y01443245D03*
Y01472245D03*
Y01401245D03*
Y01430245D03*
X01509307Y01473745D03*
Y01444745D03*
X01374753Y01475745D03*
Y01446745D03*
X01349530Y01475745D03*
Y01446745D03*
X01324307Y01475745D03*
Y01446745D03*
G54D118*
X01474447Y00883245D03*
Y00853245D03*
X01503307Y01545245D03*
Y01575245D03*
X01598807Y01039033D03*
Y01009033D03*
G54D119*
X01286790Y00791245D03*
X01315790D03*
X01636807Y00636245D03*
X01607807D03*
X01570955Y00974647D03*
X01541955D03*
X01409662Y01173993D03*
X01438661D03*
X01379807Y00795245D03*
X01408807D03*
X01607807Y00611245D03*
X01636807D03*
X01636647Y00561245D03*
X01607647D03*
X01636647Y00535850D03*
X01607647D03*
X01636807Y00586245D03*
X01607807D03*
X01400807Y00767245D03*
X01371807D03*
X01354790Y00762245D03*
X01325790D03*
X01312790D03*
X01283790D03*
X01563790Y00468745D03*
X01534790D03*
X01542807Y00443245D03*
X01513807D03*
X01357790Y00791245D03*
X01328790D03*
X01277807Y00904245D03*
X01306807D03*
X01252807Y00879245D03*
X01281807D03*
X01231307Y00904245D03*
X01260307D03*
X01549290Y00407245D03*
X01520290D03*
X01590807Y00435245D03*
X01561807D03*
G54D120*
X01177790Y00993967D03*
X01164790D03*
X01157009Y01122245D03*
X01170009D03*
X01143608Y01088245D03*
X01156607D03*
X01157008Y01156245D03*
X01170008D03*
X01195178Y01114245D03*
X01208177D03*
X01225807Y01110245D03*
X01238807D03*
X01225861Y01152245D03*
X01238861D03*
X01143920Y01105245D03*
X01156919D03*
X01195240Y01097662D03*
X01208240D03*
X01219362Y00990162D03*
X01232361D03*
X01225807Y01135245D03*
X01238807D03*
X01281307Y00956245D03*
X01268307D03*
X01239307Y01448051D03*
X01226307D03*
X01216177Y01248245D03*
X01203177D03*
X01188807Y01403245D03*
X01175807D03*
Y01420245D03*
X01188807D03*
X01239307Y01428245D03*
X01226307D03*
X01171290Y01248245D03*
X01184290D03*
X01152079Y01260909D03*
X01139079D03*
Y01279574D03*
X01152079D03*
X01238861Y01093662D03*
X01225862D03*
X01157008Y01139245D03*
X01170008D03*
X01534790Y00790245D03*
X01521790D03*
X01538790Y00598350D03*
X01551790D03*
X01482807Y00759245D03*
X01463807D03*
X01473307Y00779245D03*
X01404434Y00714245D03*
X01391434D03*
X01275136Y01353353D03*
X01288135D03*
X01538790Y00618995D03*
X01551790D03*
X01508807Y00718745D03*
X01495807D03*
X01482307Y00676245D03*
X01495307D03*
X01524807Y01003745D03*
X01537807D03*
X01482307Y00657195D03*
X01495307D03*
X01521790Y00718745D03*
X01534790D03*
X01495307Y00696245D03*
X01482307D03*
X01531807Y00562245D03*
X01544807D03*
X01558540Y00637245D03*
X01545540D03*
X01560807Y00718745D03*
X01547807D03*
X01177876Y00977245D03*
X01164876D03*
X01137807Y00994245D03*
X01150807D03*
X01137807Y00977245D03*
X01150807D03*
X01619807Y00759745D03*
X01632807D03*
X01211264Y01266245D03*
X01224264D03*
X01138807Y01238245D03*
X01151807D03*
X01164522Y00960245D03*
X01177522D03*
X01127216Y00907245D03*
X01140215D03*
X01404434Y00697245D03*
X01391434D03*
X01452807D03*
X01439807D03*
X01544307Y00523245D03*
X01531307D03*
G54D121*
X01208341Y01152745D03*
X01208342Y01139745D03*
X01283307Y01108745D03*
Y01095745D03*
X01573557Y00627652D03*
Y00640652D03*
X01449307Y00779745D03*
Y00766745D03*
X01157969Y00945739D03*
Y00926739D03*
X01137969Y00936239D03*
X01290307Y01326086D03*
X01270307Y01335586D03*
Y01316586D03*
X01568341Y01459708D03*
X01568342Y01446709D03*
X01585307D03*
Y01459708D03*
X01602767D03*
Y01446709D03*
X01140415Y01142495D03*
Y01155495D03*
G54D122*
X01285557Y01063245D03*
X01267057D03*
X01463057Y00718745D03*
X01481557D03*
X01298411Y01296245D03*
X01279912D03*
X01532150Y00543135D03*
X01550650D03*
X01188865Y01446745D03*
X01170366D03*
X01392057Y00677515D03*
X01410557D03*
G54D123*
X01480807Y00805245D03*
X01447807D03*
X01390807Y00744245D03*
X01423807D03*
X01528307Y00771245D03*
X01495307D03*
X01448790Y00740745D03*
X01481790D03*
X01155086Y00907245D03*
X01188086D03*
X01356807Y01349076D03*
X01323807D03*
X01257807Y01041228D03*
X01290807D03*
X01573597Y00757245D03*
X01606597D03*
X01564696Y00502754D03*
X01531697D03*
G54D124*
X01422307Y00693372D03*
Y00726372D03*
X01250539Y01324745D03*
Y01357745D03*
X01506076Y00976745D03*
Y01009745D03*
G54D125*
X01461307Y00671165D03*
X01431307D03*
X01178197Y00879245D03*
X01148197D03*
X01357944Y01566995D03*
X01327944D03*
X01324307Y01320245D03*
X01354307D03*
X01324307Y01289245D03*
X01354307D03*
X01348662Y01173962D03*
X01378662D03*
X01446307Y00601245D03*
X01476307D03*
X01502996Y00743745D03*
X01532997D03*
G54D126*
X01177984Y00926995D03*
Y00945495D03*
X01135290Y01384495D03*
Y01365995D03*
X01557307Y00771494D03*
Y00752995D03*
X01483307Y00985995D03*
Y01004495D03*
X01158307Y01423495D03*
Y01404995D03*
G54D127*
X01289268Y01473245D03*
Y01429245D03*
G54D128*
X01195807Y01167805D03*
X01183107D03*
Y01230685D03*
X01195807D03*
G54D129*
X01163312Y01321245D03*
X01201411Y01375245D03*
X01188712D03*
X01176012D03*
X01163312D03*
X01201411Y01321245D03*
X01188712D03*
X01176012D03*
G54D130*
X01233829Y01067832D03*
X01221129D03*
X01208429D03*
X01195729D03*
X01183029D03*
X01170329D03*
X01157629D03*
X01144929D03*
X01233829Y01014492D03*
X01221129D03*
X01208429D03*
X01195729D03*
X01183029D03*
X01170329D03*
X01157629D03*
X01144929D03*
G54D131*
X01330074Y00624852D03*
Y00552852D03*
X01260307Y00679658D03*
Y00607658D03*
G54D132*
X01521076Y00695295D03*
X01575076Y00657195D03*
Y00669895D03*
Y00682595D03*
Y00695295D03*
X01521076Y00657195D03*
Y00669895D03*
Y00682595D03*
G54D133*
X01442415Y00557725D03*
G54D134*
X01442415Y00518475D03*
X01371665Y01122620D03*
G54D135*
X01404915Y00518478D03*
X01409165Y01122620D03*
G54D136*
X01404915Y00557725D03*
G54D133*
X01371665Y01083370D03*
G54D136*
X01409165Y01083370D03*
G54D137*
X01559164Y01101835D03*
X01630682Y00842620D03*
G54D138*
X01519915Y01101835D03*
X01591432Y00842620D03*
G54D139*
X01519915Y01139336D03*
X01591432Y00880120D03*
G54D140*
X01559164Y01139335D03*
X01630682Y00880120D03*
G54D141*
X01497790Y00515350D03*
Y00561350D03*
X01316290Y01125745D03*
Y01079745D03*
G54D142*
X01516790Y01046461D03*
X01562790D03*
X01588307Y00787245D03*
X01634307D03*
G54D143*
X01181560Y01267245D03*
G54D144*
X01190560Y01293245D03*
X01172560D03*
G54D117*
X00848106Y00933242D03*
Y00962242D03*
X00798322Y00933242D03*
Y00962242D03*
X00823487Y00933242D03*
Y00962242D03*
X00844991Y01475742D03*
Y01446742D03*
X00870215Y01475742D03*
Y01446742D03*
X00895437Y01475742D03*
Y01446742D03*
X00929238Y01473742D03*
Y01444742D03*
X00979321Y01473742D03*
Y01444742D03*
X00748860Y00933242D03*
Y00962242D03*
X00773321Y00933242D03*
Y00962242D03*
X00948012Y00616777D03*
Y00587777D03*
X00580322Y01443242D03*
Y01472242D03*
Y01401242D03*
Y01430242D03*
X00954322Y01473742D03*
Y01444742D03*
X00819768Y01475742D03*
Y01446742D03*
X00794544Y01475742D03*
Y01446742D03*
X00769321Y01475742D03*
Y01446742D03*
G54D118*
X00919462Y00883242D03*
Y00853242D03*
X00948322Y01545242D03*
Y01575242D03*
X01043821Y01039030D03*
Y01009030D03*
G54D119*
X00731805Y00791242D03*
X00760805D03*
X01081821Y00636242D03*
X01052821D03*
X01015969Y00974644D03*
X00986969D03*
X00854677Y01173990D03*
X00883676D03*
X00824821Y00795242D03*
X00853822D03*
X01052821Y00611242D03*
X01081821D03*
X01081661Y00561242D03*
X01052661D03*
X01081661Y00535847D03*
X01052661D03*
X01081821Y00586242D03*
X01052821D03*
X00845821Y00767242D03*
X00816821D03*
X00799804Y00762242D03*
X00770805D03*
X00757805D03*
X00728805D03*
X01008805Y00468742D03*
X00979805D03*
X00987822Y00443242D03*
X00958821D03*
X00802804Y00791242D03*
X00773805D03*
X00722821Y00904242D03*
X00751822D03*
X00697821Y00879242D03*
X00726822D03*
X00676322Y00904242D03*
X00705322D03*
X00994304Y00407242D03*
X00965304D03*
X01035822Y00435242D03*
X01006822D03*
G54D120*
X00622805Y00993964D03*
X00609805D03*
X00602024Y01122242D03*
X00615024D03*
X00588622Y01088242D03*
X00601621D03*
X00602023Y01156242D03*
X00615022D03*
X00640192Y01114242D03*
X00653192D03*
X00670821Y01110242D03*
X00683821D03*
X00670876Y01152242D03*
X00683876D03*
X00588934Y01105242D03*
X00601933D03*
X00640255Y01097659D03*
X00653255D03*
X00664376Y00990159D03*
X00677375D03*
X00670821Y01135242D03*
X00683821D03*
X00726321Y00956242D03*
X00713322D03*
X00684322Y01448048D03*
X00671322D03*
X00661192Y01248242D03*
X00648192D03*
X00633822Y01403242D03*
X00620822D03*
Y01420242D03*
X00633822D03*
X00684322Y01428242D03*
X00671322D03*
X00616304Y01248242D03*
X00629304D03*
X00597093Y01260906D03*
X00584093D03*
Y01279571D03*
X00597093D03*
X00683876Y01093659D03*
X00670877D03*
X00602023Y01139242D03*
X00615022D03*
X00979805Y00790242D03*
X00966804D03*
X00983805Y00598347D03*
X00996805D03*
X00927821Y00759242D03*
X00908822D03*
X00918322Y00779242D03*
X00849448Y00714242D03*
X00836449D03*
X00720151Y01353350D03*
X00733150D03*
X00983805Y00618992D03*
X00996805D03*
X00953821Y00718742D03*
X00940821D03*
X00927322Y00676242D03*
X00940322D03*
X00969821Y01003742D03*
X00982822D03*
X00927322Y00657192D03*
X00940322D03*
X00966804Y00718742D03*
X00979805D03*
X00940322Y00696242D03*
X00927322D03*
X00976821Y00562242D03*
X00989822D03*
X01003555Y00637242D03*
X00990554D03*
X01005822Y00718742D03*
X00992822D03*
X00622890Y00977242D03*
X00609890D03*
X00582821Y00994242D03*
X00595821D03*
X00582821Y00977242D03*
X00595821D03*
X01064821Y00759742D03*
X01077821D03*
X00656278Y01266242D03*
X00669278D03*
X00583821Y01238242D03*
X00596821D03*
X00609537Y00960242D03*
X00622537D03*
X00572231Y00907242D03*
X00585230D03*
X00849448Y00697242D03*
X00836449D03*
X00897822D03*
X00884822D03*
X00989321Y00523242D03*
X00976321D03*
G54D121*
X00653355Y01152742D03*
X00653356Y01139742D03*
X00728321Y01108742D03*
Y01095742D03*
X01018572Y00627649D03*
Y00640649D03*
X00894321Y00779742D03*
Y00766742D03*
X00602983Y00945736D03*
Y00926736D03*
X00582983Y00936236D03*
X00735321Y01326083D03*
X00715322Y01335583D03*
Y01316583D03*
X01013355Y01459705D03*
X01013356Y01446706D03*
X01030321D03*
Y01459705D03*
X01047782D03*
Y01446706D03*
X00585429Y01142492D03*
Y01155492D03*
G54D122*
X00730571Y01063242D03*
X00712072D03*
X00908071Y00718742D03*
X00926572D03*
X00743426Y01296242D03*
X00724927D03*
X00977165Y00543132D03*
X00995665D03*
X00633879Y01446742D03*
X00615380D03*
X00837072Y00677512D03*
X00855571D03*
G54D123*
X00925821Y00805242D03*
X00892822D03*
X00835821Y00744242D03*
X00868822D03*
X00973322Y00771242D03*
X00940322D03*
X00893805Y00740742D03*
X00926804D03*
X00600101Y00907242D03*
X00633100D03*
X00801821Y01349073D03*
X00768822D03*
X00702821Y01041225D03*
X00735822D03*
X01018611Y00757242D03*
X01051611D03*
X01009711Y00502751D03*
X00976711D03*
G54D124*
X00867321Y00693369D03*
Y00726369D03*
X00695553Y01324742D03*
Y01357742D03*
X00951090Y00976742D03*
Y01009742D03*
G54D125*
X00906321Y00671162D03*
X00876321D03*
X00623211Y00879242D03*
X00593212D03*
X00802958Y01566992D03*
X00772958D03*
X00769321Y01320242D03*
X00799322D03*
X00769321Y01289242D03*
X00799322D03*
X00793676Y01173959D03*
X00823676D03*
X00891321Y00601242D03*
X00921322D03*
X00948010Y00743742D03*
X00978012D03*
G54D126*
X00622999Y00926992D03*
Y00945492D03*
X00580305Y01384492D03*
Y01365992D03*
X01002321Y00771491D03*
Y00752992D03*
X00928322Y00985992D03*
Y01004492D03*
X00603321Y01423492D03*
Y01404992D03*
G54D127*
X00734283Y01473242D03*
Y01429242D03*
G54D128*
X00640822Y01167802D03*
X00628122D03*
Y01230682D03*
X00640822D03*
G54D129*
X00608327Y01321242D03*
X00646426Y01375242D03*
X00633727D03*
X00621027D03*
X00608327D03*
X00646426Y01321242D03*
X00633727D03*
X00621027D03*
G54D130*
X00678844Y01067829D03*
X00666144D03*
X00653444D03*
X00640744D03*
X00628044D03*
X00615344D03*
X00602644D03*
X00589944D03*
X00678844Y01014489D03*
X00666144D03*
X00653444D03*
X00640744D03*
X00628044D03*
X00615344D03*
X00602644D03*
X00589944D03*
G54D131*
X00775088Y00624849D03*
Y00552849D03*
X00705322Y00679655D03*
Y00607655D03*
G54D132*
X00966090Y00695292D03*
X01020091Y00657192D03*
Y00669892D03*
Y00682592D03*
Y00695292D03*
X00966090Y00657192D03*
Y00669892D03*
Y00682592D03*
G54D133*
X00887429Y00557722D03*
G54D134*
X00887429Y00518472D03*
X00816679Y01122617D03*
G54D135*
X00849930Y00518475D03*
X00854179Y01122617D03*
G54D136*
X00849930Y00557722D03*
G54D133*
X00816679Y01083367D03*
G54D136*
X00854179Y01083367D03*
G54D137*
X01004178Y01101832D03*
X01075696Y00842617D03*
G54D138*
X00964930Y01101832D03*
X01036447Y00842617D03*
G54D139*
X00964930Y01139333D03*
X01036447Y00880117D03*
G54D140*
X01004178Y01139332D03*
X01075696Y00880117D03*
G54D141*
X00942804Y00515347D03*
Y00561347D03*
X00761304Y01125742D03*
Y01079742D03*
G54D142*
X00961804Y01046458D03*
X01007805D03*
X01033321Y00787242D03*
X01079322D03*
G54D143*
X00626574Y01267242D03*
G54D144*
X00635574Y01293242D03*
X00617574D03*
G54D117*
X00293116Y00933243D03*
Y00962243D03*
X00243332Y00933243D03*
Y00962243D03*
X00268498Y00933243D03*
Y00962243D03*
X00290001Y01475743D03*
Y01446743D03*
X00315225Y01475743D03*
Y01446743D03*
X00340448Y01475743D03*
Y01446743D03*
X00374248Y01473743D03*
Y01444743D03*
X00424332Y01473743D03*
Y01444743D03*
X00193871Y00933243D03*
Y00962243D03*
X00218332Y00933243D03*
Y00962243D03*
X00393023Y00616778D03*
Y00587778D03*
X00025332Y01443243D03*
Y01472243D03*
Y01401243D03*
Y01430243D03*
X00399332Y01473743D03*
Y01444743D03*
X00264778Y01475743D03*
Y01446743D03*
X00239555Y01475743D03*
Y01446743D03*
X00214332Y01475743D03*
Y01446743D03*
G54D118*
X00364472Y00883243D03*
Y00853243D03*
X00393332Y01545243D03*
Y01575243D03*
X00488832Y01039031D03*
Y01009031D03*
G54D119*
X00176815Y00791243D03*
X00205815D03*
X00526831Y00636243D03*
X00497831D03*
X00460980Y00974645D03*
X00431980D03*
X00299687Y01173991D03*
X00328686D03*
X00269832Y00795243D03*
X00298832D03*
X00497831Y00611243D03*
X00526831D03*
X00526671Y00561243D03*
X00497671D03*
X00526671Y00535848D03*
X00497671D03*
X00526831Y00586243D03*
X00497831D03*
X00290832Y00767243D03*
X00261832D03*
X00244815Y00762243D03*
X00215815D03*
X00202815D03*
X00173815D03*
X00453815Y00468743D03*
X00424815D03*
X00432832Y00443243D03*
X00403832D03*
X00247815Y00791243D03*
X00218815D03*
X00167832Y00904243D03*
X00196832D03*
X00142832Y00879243D03*
X00171832D03*
X00121332Y00904243D03*
X00150332D03*
X00439315Y00407243D03*
X00410315D03*
X00480832Y00435243D03*
X00451832D03*
G54D120*
X00067815Y00993965D03*
X00054815D03*
X00047034Y01122243D03*
X00060034D03*
X00033633Y01088243D03*
X00046632D03*
X00047033Y01156243D03*
X00060033D03*
X00085203Y01114243D03*
X00098202D03*
X00115832Y01110243D03*
X00128832D03*
X00115886Y01152243D03*
X00128886D03*
X00033945Y01105243D03*
X00046944D03*
X00085265Y01097660D03*
X00098265D03*
X00109387Y00990160D03*
X00122386D03*
X00115832Y01135243D03*
X00128832D03*
X00171332Y00956243D03*
X00158332D03*
X00129332Y01448049D03*
X00116332D03*
X00106202Y01248243D03*
X00093202D03*
X00078832Y01403243D03*
X00065832D03*
Y01420243D03*
X00078832D03*
X00129332Y01428243D03*
X00116332D03*
X00061315Y01248243D03*
X00074315D03*
X00042104Y01260907D03*
X00029104D03*
Y01279572D03*
X00042104D03*
X00128886Y01093660D03*
X00115887D03*
X00047033Y01139243D03*
X00060033D03*
X00424815Y00790243D03*
X00411815D03*
X00428815Y00598348D03*
X00441815D03*
X00372832Y00759243D03*
X00353832D03*
X00363332Y00779243D03*
X00294459Y00714243D03*
X00281459D03*
X00165161Y01353351D03*
X00178160D03*
X00428815Y00618993D03*
X00441815D03*
X00398832Y00718743D03*
X00385832D03*
X00372332Y00676243D03*
X00385332D03*
X00414832Y01003743D03*
X00427832D03*
X00372332Y00657193D03*
X00385332D03*
X00411815Y00718743D03*
X00424815D03*
X00385332Y00696243D03*
X00372332D03*
X00421832Y00562243D03*
X00434832D03*
X00448565Y00637243D03*
X00435565D03*
X00450832Y00718743D03*
X00437832D03*
X00067901Y00977243D03*
X00054901D03*
X00027832Y00994243D03*
X00040832D03*
X00027832Y00977243D03*
X00040832D03*
X00509831Y00759743D03*
X00522831D03*
X00101289Y01266243D03*
X00114289D03*
X00028832Y01238243D03*
X00041832D03*
X00054547Y00960243D03*
X00067547D03*
X00017241Y00907243D03*
X00030240D03*
X00294459Y00697243D03*
X00281459D03*
X00342832D03*
X00329832D03*
X00434332Y00523243D03*
X00421332D03*
G54D121*
X00098366Y01152743D03*
X00098367Y01139743D03*
X00173332Y01108743D03*
Y01095743D03*
X00463582Y00627650D03*
Y00640650D03*
X00339332Y00779743D03*
Y00766743D03*
X00047994Y00945737D03*
Y00926737D03*
X00027994Y00936237D03*
X00180332Y01326084D03*
X00160332Y01335584D03*
Y01316584D03*
X00458366Y01459706D03*
X00458367Y01446707D03*
X00475332D03*
Y01459706D03*
X00492791D03*
Y01446707D03*
X00030440Y01142493D03*
Y01155493D03*
G54D122*
X00175582Y01063243D03*
X00157082D03*
X00353082Y00718743D03*
X00371582D03*
X00188436Y01296243D03*
X00169937D03*
X00422175Y00543133D03*
X00440675D03*
X00078890Y01446743D03*
X00060391D03*
X00282082Y00677513D03*
X00300582D03*
G54D123*
X00370832Y00805243D03*
X00337832D03*
X00280832Y00744243D03*
X00313832D03*
X00418332Y00771243D03*
X00385332D03*
X00338815Y00740743D03*
X00371815D03*
X00045111Y00907243D03*
X00078111D03*
X00246832Y01349074D03*
X00213832D03*
X00147832Y01041226D03*
X00180832D03*
X00463622Y00757243D03*
X00496621D03*
X00454721Y00502752D03*
X00421722D03*
G54D124*
X00312332Y00693370D03*
Y00726370D03*
X00140564Y01324743D03*
Y01357743D03*
X00396101Y00976743D03*
Y01009743D03*
G54D125*
X00351332Y00671163D03*
X00321332D03*
X00068222Y00879243D03*
X00038222D03*
X00247969Y01566993D03*
X00217969D03*
X00214332Y01320243D03*
X00244332D03*
X00214332Y01289243D03*
X00244332D03*
X00238687Y01173960D03*
X00268687D03*
X00336332Y00601243D03*
X00366332D03*
X00393021Y00743743D03*
X00423022D03*
G54D126*
X00068009Y00926993D03*
Y00945493D03*
X00025315Y01384493D03*
Y01365993D03*
X00447332Y00771492D03*
Y00752993D03*
X00373332Y00985993D03*
Y01004493D03*
X00048332Y01423493D03*
Y01404993D03*
G54D127*
X00179293Y01473243D03*
Y01429243D03*
G54D128*
X00085832Y01167803D03*
X00073132D03*
Y01230683D03*
X00085832D03*
G54D129*
X00053337Y01321243D03*
X00091436Y01375243D03*
X00078737D03*
X00066037D03*
X00053337D03*
X00091436Y01321243D03*
X00078737D03*
X00066037D03*
G54D130*
X00123854Y01067830D03*
X00111154D03*
X00098454D03*
X00085754D03*
X00073054D03*
X00060354D03*
X00047654D03*
X00034954D03*
X00123854Y01014490D03*
X00111154D03*
X00098454D03*
X00085754D03*
X00073054D03*
X00060354D03*
X00047654D03*
X00034954D03*
G54D131*
X00220099Y00624850D03*
Y00552850D03*
X00150332Y00679656D03*
Y00607656D03*
G54D132*
X00411101Y00695293D03*
X00465101Y00657193D03*
Y00669893D03*
Y00682593D03*
Y00695293D03*
X00411101Y00657193D03*
Y00669893D03*
Y00682593D03*
G54D133*
X00332440Y00557723D03*
G54D134*
X00332440Y00518473D03*
X00261690Y01122618D03*
G54D135*
X00294940Y00518476D03*
X00299190Y01122618D03*
G54D136*
X00294940Y00557723D03*
G54D133*
X00261690Y01083368D03*
G54D136*
X00299190Y01083368D03*
G54D137*
X00449189Y01101833D03*
X00520706Y00842618D03*
G54D138*
X00409940Y01101833D03*
X00481457Y00842618D03*
G54D139*
X00409940Y01139334D03*
X00481457Y00880118D03*
G54D140*
X00449189Y01139333D03*
X00520706Y00880118D03*
G54D141*
X00387815Y00515348D03*
Y00561348D03*
X00206315Y01125743D03*
Y01079743D03*
G54D142*
X00406815Y01046459D03*
X00452815D03*
X00478332Y00787243D03*
X00524331D03*
G54D143*
X00071585Y01267243D03*
G54D144*
X00080585Y01293243D03*
X00062585D03*
G54D117*
X02513107Y00933223D03*
Y00962223D03*
X02463323Y00933223D03*
Y00962223D03*
X02488489Y00933223D03*
Y00962223D03*
X02509992Y01475723D03*
Y01446723D03*
X02535216Y01475723D03*
Y01446723D03*
X02560439Y01475723D03*
Y01446723D03*
X02594239Y01473723D03*
Y01444723D03*
X02644323Y01473723D03*
Y01444723D03*
X02413862Y00933223D03*
Y00962223D03*
X02438323Y00933223D03*
Y00962223D03*
X02613014Y00616758D03*
Y00587758D03*
X02245323Y01443223D03*
Y01472223D03*
Y01401223D03*
Y01430223D03*
X02619323Y01473723D03*
Y01444723D03*
X02484769Y01475723D03*
Y01446723D03*
X02459546Y01475723D03*
Y01446723D03*
X02434323Y01475723D03*
Y01446723D03*
G54D118*
X02584463Y00883223D03*
Y00853223D03*
X02613323Y01545223D03*
Y01575223D03*
X02708823Y01039011D03*
Y01009011D03*
G54D119*
X02396806Y00791223D03*
X02425806D03*
X02746823Y00636223D03*
X02717823D03*
X02680971Y00974625D03*
X02651971D03*
X02519678Y01173971D03*
X02548677D03*
X02489823Y00795223D03*
X02518823D03*
X02717823Y00611223D03*
X02746823D03*
X02746663Y00561223D03*
X02717663D03*
X02746663Y00535828D03*
X02717663D03*
X02746823Y00586223D03*
X02717823D03*
X02510823Y00767223D03*
X02481823D03*
X02464806Y00762223D03*
X02435806D03*
X02422806D03*
X02393806D03*
X02673806Y00468723D03*
X02644806D03*
X02652823Y00443223D03*
X02623823D03*
X02467806Y00791223D03*
X02438806D03*
X02387823Y00904223D03*
X02416823D03*
X02362823Y00879223D03*
X02391823D03*
X02341323Y00904223D03*
X02370323D03*
X02659306Y00407223D03*
X02630306D03*
X02700823Y00435223D03*
X02671823D03*
G54D120*
X02287806Y00993945D03*
X02274806D03*
X02267025Y01122223D03*
X02280025D03*
X02253624Y01088223D03*
X02266623D03*
X02267024Y01156223D03*
X02280024D03*
X02305194Y01114223D03*
X02318193D03*
X02335823Y01110223D03*
X02348823D03*
X02335877Y01152223D03*
X02348877D03*
X02253936Y01105223D03*
X02266935D03*
X02305256Y01097640D03*
X02318256D03*
X02329378Y00990140D03*
X02342377D03*
X02335823Y01135223D03*
X02348823D03*
X02391323Y00956223D03*
X02378323D03*
X02349323Y01448029D03*
X02336323D03*
X02326193Y01248223D03*
X02313193D03*
X02298823Y01403223D03*
X02285823D03*
Y01420223D03*
X02298823D03*
X02349323Y01428223D03*
X02336323D03*
X02281306Y01248223D03*
X02294306D03*
X02262095Y01260887D03*
X02249095D03*
Y01279552D03*
X02262095D03*
X02348877Y01093640D03*
X02335878D03*
X02267024Y01139223D03*
X02280024D03*
X02644806Y00790223D03*
X02631806D03*
X02648806Y00598328D03*
X02661806D03*
X02592823Y00759223D03*
X02573823D03*
X02583323Y00779223D03*
X02514450Y00714223D03*
X02501450D03*
X02385152Y01353331D03*
X02398151D03*
X02648806Y00618973D03*
X02661806D03*
X02618823Y00718723D03*
X02605823D03*
X02592323Y00676223D03*
X02605323D03*
X02634823Y01003723D03*
X02647823D03*
X02592323Y00657173D03*
X02605323D03*
X02631806Y00718723D03*
X02644806D03*
X02605323Y00696223D03*
X02592323D03*
X02641823Y00562223D03*
X02654823D03*
X02668556Y00637223D03*
X02655556D03*
X02670823Y00718723D03*
X02657823D03*
X02287892Y00977223D03*
X02274892D03*
X02247823Y00994223D03*
X02260823D03*
X02247823Y00977223D03*
X02260823D03*
X02729823Y00759723D03*
X02742823D03*
X02321280Y01266223D03*
X02334280D03*
X02248823Y01238223D03*
X02261823D03*
X02274538Y00960223D03*
X02287538D03*
X02237232Y00907223D03*
X02250231D03*
X02514450Y00697223D03*
X02501450D03*
X02562823D03*
X02549823D03*
X02654323Y00523223D03*
X02641323D03*
G54D121*
X02318357Y01152723D03*
X02318358Y01139723D03*
X02393323Y01108723D03*
Y01095723D03*
X02683573Y00627630D03*
Y00640630D03*
X02559323Y00779723D03*
Y00766723D03*
X02267985Y00945717D03*
Y00926717D03*
X02247985Y00936217D03*
X02400323Y01326064D03*
X02380323Y01335564D03*
Y01316564D03*
X02678357Y01459686D03*
X02678358Y01446687D03*
X02695323D03*
Y01459686D03*
X02712783D03*
Y01446687D03*
X02250431Y01142473D03*
Y01155473D03*
G54D122*
X02395573Y01063223D03*
X02377073D03*
X02573073Y00718723D03*
X02591573D03*
X02408427Y01296223D03*
X02389928D03*
X02642166Y00543113D03*
X02660666D03*
X02298881Y01446723D03*
X02280382D03*
X02502073Y00677493D03*
X02520573D03*
G54D123*
X02590823Y00805223D03*
X02557823D03*
X02500823Y00744223D03*
X02533823D03*
X02638323Y00771223D03*
X02605323D03*
X02558806Y00740723D03*
X02591806D03*
X02265102Y00907223D03*
X02298102D03*
X02466823Y01349054D03*
X02433823D03*
X02367823Y01041206D03*
X02400823D03*
X02683613Y00757223D03*
X02716613D03*
X02674712Y00502732D03*
X02641713D03*
G54D124*
X02532323Y00693350D03*
Y00726350D03*
X02360555Y01324723D03*
Y01357723D03*
X02616092Y00976723D03*
Y01009723D03*
G54D125*
X02571323Y00671143D03*
X02541323D03*
X02288213Y00879223D03*
X02258213D03*
X02467960Y01566973D03*
X02437960D03*
X02434323Y01320223D03*
X02464323D03*
X02434323Y01289223D03*
X02464323D03*
X02458678Y01173940D03*
X02488678D03*
X02556323Y00601223D03*
X02586323D03*
X02613012Y00743723D03*
X02643013D03*
G54D126*
X02288000Y00926973D03*
Y00945473D03*
X02245306Y01384473D03*
Y01365973D03*
X02667323Y00771472D03*
Y00752973D03*
X02593323Y00985973D03*
Y01004473D03*
X02268323Y01423473D03*
Y01404973D03*
G54D127*
X02399284Y01473223D03*
Y01429223D03*
G54D128*
X02305823Y01167783D03*
X02293123D03*
Y01230663D03*
X02305823D03*
G54D129*
X02273328Y01321223D03*
X02311427Y01375223D03*
X02298728D03*
X02286028D03*
X02273328D03*
X02311427Y01321223D03*
X02298728D03*
X02286028D03*
G54D130*
X02343845Y01067810D03*
X02331145D03*
X02318445D03*
X02305745D03*
X02293045D03*
X02280345D03*
X02267645D03*
X02254945D03*
X02343845Y01014470D03*
X02331145D03*
X02318445D03*
X02305745D03*
X02293045D03*
X02280345D03*
X02267645D03*
X02254945D03*
G54D131*
X02440090Y00624830D03*
Y00552830D03*
X02370323Y00679636D03*
Y00607636D03*
G54D132*
X02631092Y00695273D03*
X02685092Y00657173D03*
Y00669873D03*
Y00682573D03*
Y00695273D03*
X02631092Y00657173D03*
Y00669873D03*
Y00682573D03*
G54D133*
X02552431Y00557703D03*
G54D134*
X02552431Y00518453D03*
X02481681Y01122598D03*
G54D135*
X02514931Y00518456D03*
X02519181Y01122598D03*
G54D136*
X02514931Y00557703D03*
G54D133*
X02481681Y01083348D03*
G54D136*
X02519181Y01083348D03*
G54D137*
X02669180Y01101813D03*
X02740698Y00842598D03*
G54D138*
X02629931Y01101813D03*
X02701448Y00842598D03*
G54D139*
X02629931Y01139314D03*
X02701448Y00880098D03*
G54D140*
X02669180Y01139313D03*
X02740698Y00880098D03*
G54D141*
X02607806Y00515328D03*
Y00561328D03*
X02426306Y01125723D03*
Y01079723D03*
G54D142*
X02626806Y01046439D03*
X02672806D03*
X02698323Y00787223D03*
X02744323D03*
G54D143*
X02291576Y01267223D03*
G54D144*
X02300576Y01293223D03*
X02282576D03*
G54D117*
X01958107Y00933223D03*
Y00962223D03*
X01908323Y00933223D03*
Y00962223D03*
X01933489Y00933223D03*
Y00962223D03*
X01954992Y01475723D03*
Y01446723D03*
X01980216Y01475723D03*
Y01446723D03*
X02005439Y01475723D03*
Y01446723D03*
X02039239Y01473723D03*
Y01444723D03*
X02089323Y01473723D03*
Y01444723D03*
X01858862Y00933223D03*
Y00962223D03*
X01883323Y00933223D03*
Y00962223D03*
X02058014Y00616758D03*
Y00587758D03*
X01690323Y01443223D03*
Y01472223D03*
Y01401223D03*
Y01430223D03*
X02064323Y01473723D03*
Y01444723D03*
X01929769Y01475723D03*
Y01446723D03*
X01904546Y01475723D03*
Y01446723D03*
X01879323Y01475723D03*
Y01446723D03*
G54D118*
X02029463Y00883223D03*
Y00853223D03*
X02058323Y01545223D03*
Y01575223D03*
X02153823Y01039011D03*
Y01009011D03*
G54D119*
X01841806Y00791223D03*
X01870806D03*
X02191823Y00636223D03*
X02162823D03*
X02125971Y00974625D03*
X02096971D03*
X01964678Y01173971D03*
X01993677D03*
X01934823Y00795223D03*
X01963823D03*
X02162823Y00611223D03*
X02191823D03*
X02191663Y00561223D03*
X02162663D03*
X02191663Y00535828D03*
X02162663D03*
X02191823Y00586223D03*
X02162823D03*
X01955823Y00767223D03*
X01926823D03*
X01909806Y00762223D03*
X01880806D03*
X01867806D03*
X01838806D03*
X02118806Y00468723D03*
X02089806D03*
X02097823Y00443223D03*
X02068823D03*
X01912806Y00791223D03*
X01883806D03*
X01832823Y00904223D03*
X01861823D03*
X01807823Y00879223D03*
X01836823D03*
X01786323Y00904223D03*
X01815323D03*
X02104306Y00407223D03*
X02075306D03*
X02145823Y00435223D03*
X02116823D03*
G54D120*
X01732806Y00993945D03*
X01719806D03*
X01712025Y01122223D03*
X01725025D03*
X01698624Y01088223D03*
X01711623D03*
X01712024Y01156223D03*
X01725024D03*
X01750194Y01114223D03*
X01763193D03*
X01780823Y01110223D03*
X01793823D03*
X01780877Y01152223D03*
X01793877D03*
X01698936Y01105223D03*
X01711935D03*
X01750256Y01097640D03*
X01763256D03*
X01774378Y00990140D03*
X01787377D03*
X01780823Y01135223D03*
X01793823D03*
X01836323Y00956223D03*
X01823323D03*
X01794323Y01448029D03*
X01781323D03*
X01771193Y01248223D03*
X01758193D03*
X01743823Y01403223D03*
X01730823D03*
Y01420223D03*
X01743823D03*
X01794323Y01428223D03*
X01781323D03*
X01726306Y01248223D03*
X01739306D03*
X01707095Y01260887D03*
X01694095D03*
Y01279552D03*
X01707095D03*
X01793877Y01093640D03*
X01780878D03*
X01712024Y01139223D03*
X01725024D03*
X02089806Y00790223D03*
X02076806D03*
X02093806Y00598328D03*
X02106806D03*
X02037823Y00759223D03*
X02018823D03*
X02028323Y00779223D03*
X01959450Y00714223D03*
X01946450D03*
X01830152Y01353331D03*
X01843151D03*
X02093806Y00618973D03*
X02106806D03*
X02063823Y00718723D03*
X02050823D03*
X02037323Y00676223D03*
X02050323D03*
X02079823Y01003723D03*
X02092823D03*
X02037323Y00657173D03*
X02050323D03*
X02076806Y00718723D03*
X02089806D03*
X02050323Y00696223D03*
X02037323D03*
X02086823Y00562223D03*
X02099823D03*
X02113556Y00637223D03*
X02100556D03*
X02115823Y00718723D03*
X02102823D03*
X01732892Y00977223D03*
X01719892D03*
X01692823Y00994223D03*
X01705823D03*
X01692823Y00977223D03*
X01705823D03*
X02174823Y00759723D03*
X02187823D03*
X01766280Y01266223D03*
X01779280D03*
X01693823Y01238223D03*
X01706823D03*
X01719538Y00960223D03*
X01732538D03*
X01682232Y00907223D03*
X01695231D03*
X01959450Y00697223D03*
X01946450D03*
X02007823D03*
X01994823D03*
X02099323Y00523223D03*
X02086323D03*
G54D121*
X01763357Y01152723D03*
X01763358Y01139723D03*
X01838323Y01108723D03*
Y01095723D03*
X02128573Y00627630D03*
Y00640630D03*
X02004323Y00779723D03*
Y00766723D03*
X01712985Y00945717D03*
Y00926717D03*
X01692985Y00936217D03*
X01845323Y01326064D03*
X01825323Y01335564D03*
Y01316564D03*
X02123357Y01459686D03*
X02123358Y01446687D03*
X02140323D03*
Y01459686D03*
X02157783D03*
Y01446687D03*
X01695431Y01142473D03*
Y01155473D03*
G54D122*
X01840573Y01063223D03*
X01822073D03*
X02018073Y00718723D03*
X02036573D03*
X01853427Y01296223D03*
X01834928D03*
X02087166Y00543113D03*
X02105666D03*
X01743881Y01446723D03*
X01725382D03*
X01947073Y00677493D03*
X01965573D03*
G54D123*
X02035823Y00805223D03*
X02002823D03*
X01945823Y00744223D03*
X01978823D03*
X02083323Y00771223D03*
X02050323D03*
X02003806Y00740723D03*
X02036806D03*
X01710102Y00907223D03*
X01743102D03*
X01911823Y01349054D03*
X01878823D03*
X01812823Y01041206D03*
X01845823D03*
X02128613Y00757223D03*
X02161613D03*
X02119712Y00502732D03*
X02086713D03*
G54D124*
X01977323Y00693350D03*
Y00726350D03*
X01805555Y01324723D03*
Y01357723D03*
X02061092Y00976723D03*
Y01009723D03*
G54D125*
X02016323Y00671143D03*
X01986323D03*
X01733213Y00879223D03*
X01703213D03*
X01912960Y01566973D03*
X01882960D03*
X01879323Y01320223D03*
X01909323D03*
X01879323Y01289223D03*
X01909323D03*
X01903678Y01173940D03*
X01933678D03*
X02001323Y00601223D03*
X02031323D03*
X02058012Y00743723D03*
X02088013D03*
G54D126*
X01733000Y00926973D03*
Y00945473D03*
X01690306Y01384473D03*
Y01365973D03*
X02112323Y00771472D03*
Y00752973D03*
X02038323Y00985973D03*
Y01004473D03*
X01713323Y01423473D03*
Y01404973D03*
G54D127*
X01844284Y01473223D03*
Y01429223D03*
G54D128*
X01750823Y01167783D03*
X01738123D03*
Y01230663D03*
X01750823D03*
G54D129*
X01718328Y01321223D03*
X01756427Y01375223D03*
X01743728D03*
X01731028D03*
X01718328D03*
X01756427Y01321223D03*
X01743728D03*
X01731028D03*
G54D130*
X01788845Y01067810D03*
X01776145D03*
X01763445D03*
X01750745D03*
X01738045D03*
X01725345D03*
X01712645D03*
X01699945D03*
X01788845Y01014470D03*
X01776145D03*
X01763445D03*
X01750745D03*
X01738045D03*
X01725345D03*
X01712645D03*
X01699945D03*
G54D131*
X01885090Y00624830D03*
Y00552830D03*
X01815323Y00679636D03*
Y00607636D03*
G54D132*
X02076092Y00695273D03*
X02130092Y00657173D03*
Y00669873D03*
Y00682573D03*
Y00695273D03*
X02076092Y00657173D03*
Y00669873D03*
Y00682573D03*
G54D133*
X01997431Y00557703D03*
G54D134*
X01997431Y00518453D03*
X01926681Y01122598D03*
G54D135*
X01959931Y00518456D03*
X01964181Y01122598D03*
G54D136*
X01959931Y00557703D03*
G54D133*
X01926681Y01083348D03*
G54D136*
X01964181Y01083348D03*
G54D137*
X02114180Y01101813D03*
X02185698Y00842598D03*
G54D138*
X02074931Y01101813D03*
X02146448Y00842598D03*
G54D139*
X02074931Y01139314D03*
X02146448Y00880098D03*
G54D140*
X02114180Y01139313D03*
X02185698Y00880098D03*
G54D141*
X02052806Y00515328D03*
Y00561328D03*
X01871306Y01125723D03*
Y01079723D03*
G54D142*
X02071806Y01046439D03*
X02117806D03*
X02143323Y00787223D03*
X02189323D03*
G54D143*
X01736576Y01267223D03*
G54D144*
X01745576Y01293223D03*
X01727576D03*
G54D117*
X01403107Y00933223D03*
Y00962223D03*
X01353323Y00933223D03*
Y00962223D03*
X01378489Y00933223D03*
Y00962223D03*
X01399992Y01475723D03*
Y01446723D03*
X01425216Y01475723D03*
Y01446723D03*
X01450439Y01475723D03*
Y01446723D03*
X01484239Y01473723D03*
Y01444723D03*
X01534323Y01473723D03*
Y01444723D03*
X01303862Y00933223D03*
Y00962223D03*
X01328323Y00933223D03*
Y00962223D03*
X01503014Y00616758D03*
Y00587758D03*
X01135323Y01443223D03*
Y01472223D03*
Y01401223D03*
Y01430223D03*
X01509323Y01473723D03*
Y01444723D03*
X01374769Y01475723D03*
Y01446723D03*
X01349546Y01475723D03*
Y01446723D03*
X01324323Y01475723D03*
Y01446723D03*
G54D118*
X01474463Y00883223D03*
Y00853223D03*
X01503323Y01545223D03*
Y01575223D03*
X01598823Y01039011D03*
Y01009011D03*
G54D119*
X01286806Y00791223D03*
X01315806D03*
X01636823Y00636223D03*
X01607823D03*
X01570971Y00974625D03*
X01541971D03*
X01409678Y01173971D03*
X01438677D03*
X01379823Y00795223D03*
X01408823D03*
X01607823Y00611223D03*
X01636823D03*
X01636663Y00561223D03*
X01607663D03*
X01636663Y00535828D03*
X01607663D03*
X01636823Y00586223D03*
X01607823D03*
X01400823Y00767223D03*
X01371823D03*
X01354806Y00762223D03*
X01325806D03*
X01312806D03*
X01283806D03*
X01563806Y00468723D03*
X01534806D03*
X01542823Y00443223D03*
X01513823D03*
X01357806Y00791223D03*
X01328806D03*
X01277823Y00904223D03*
X01306823D03*
X01252823Y00879223D03*
X01281823D03*
X01231323Y00904223D03*
X01260323D03*
X01549306Y00407223D03*
X01520306D03*
X01590823Y00435223D03*
X01561823D03*
G54D120*
X01177806Y00993945D03*
X01164806D03*
X01157025Y01122223D03*
X01170025D03*
X01143624Y01088223D03*
X01156623D03*
X01157024Y01156223D03*
X01170024D03*
X01195194Y01114223D03*
X01208193D03*
X01225823Y01110223D03*
X01238823D03*
X01225877Y01152223D03*
X01238877D03*
X01143936Y01105223D03*
X01156935D03*
X01195256Y01097640D03*
X01208256D03*
X01219378Y00990140D03*
X01232377D03*
X01225823Y01135223D03*
X01238823D03*
X01281323Y00956223D03*
X01268323D03*
X01239323Y01448029D03*
X01226323D03*
X01216193Y01248223D03*
X01203193D03*
X01188823Y01403223D03*
X01175823D03*
Y01420223D03*
X01188823D03*
X01239323Y01428223D03*
X01226323D03*
X01171306Y01248223D03*
X01184306D03*
X01152095Y01260887D03*
X01139095D03*
Y01279552D03*
X01152095D03*
X01238877Y01093640D03*
X01225878D03*
X01157024Y01139223D03*
X01170024D03*
X01534806Y00790223D03*
X01521806D03*
X01538806Y00598328D03*
X01551806D03*
X01482823Y00759223D03*
X01463823D03*
X01473323Y00779223D03*
X01404450Y00714223D03*
X01391450D03*
X01275152Y01353331D03*
X01288151D03*
X01538806Y00618973D03*
X01551806D03*
X01508823Y00718723D03*
X01495823D03*
X01482323Y00676223D03*
X01495323D03*
X01524823Y01003723D03*
X01537823D03*
X01482323Y00657173D03*
X01495323D03*
X01521806Y00718723D03*
X01534806D03*
X01495323Y00696223D03*
X01482323D03*
X01531823Y00562223D03*
X01544823D03*
X01558556Y00637223D03*
X01545556D03*
X01560823Y00718723D03*
X01547823D03*
X01177892Y00977223D03*
X01164892D03*
X01137823Y00994223D03*
X01150823D03*
X01137823Y00977223D03*
X01150823D03*
X01619823Y00759723D03*
X01632823D03*
X01211280Y01266223D03*
X01224280D03*
X01138823Y01238223D03*
X01151823D03*
X01164538Y00960223D03*
X01177538D03*
X01127232Y00907223D03*
X01140231D03*
X01404450Y00697223D03*
X01391450D03*
X01452823D03*
X01439823D03*
X01544323Y00523223D03*
X01531323D03*
G54D121*
X01208357Y01152723D03*
X01208358Y01139723D03*
X01283323Y01108723D03*
Y01095723D03*
X01573573Y00627630D03*
Y00640630D03*
X01449323Y00779723D03*
Y00766723D03*
X01157985Y00945717D03*
Y00926717D03*
X01137985Y00936217D03*
X01290323Y01326064D03*
X01270323Y01335564D03*
Y01316564D03*
X01568357Y01459686D03*
X01568358Y01446687D03*
X01585323D03*
Y01459686D03*
X01602783D03*
Y01446687D03*
X01140431Y01142473D03*
Y01155473D03*
G54D122*
X01285573Y01063223D03*
X01267073D03*
X01463073Y00718723D03*
X01481573D03*
X01298427Y01296223D03*
X01279928D03*
X01532166Y00543113D03*
X01550666D03*
X01188881Y01446723D03*
X01170382D03*
X01392073Y00677493D03*
X01410573D03*
G54D123*
X01480823Y00805223D03*
X01447823D03*
X01390823Y00744223D03*
X01423823D03*
X01528323Y00771223D03*
X01495323D03*
X01448806Y00740723D03*
X01481806D03*
X01155102Y00907223D03*
X01188102D03*
X01356823Y01349054D03*
X01323823D03*
X01257823Y01041206D03*
X01290823D03*
X01573613Y00757223D03*
X01606613D03*
X01564712Y00502732D03*
X01531713D03*
G54D124*
X01422323Y00693350D03*
Y00726350D03*
X01250555Y01324723D03*
Y01357723D03*
X01506092Y00976723D03*
Y01009723D03*
G54D125*
X01461323Y00671143D03*
X01431323D03*
X01178213Y00879223D03*
X01148213D03*
X01357960Y01566973D03*
X01327960D03*
X01324323Y01320223D03*
X01354323D03*
X01324323Y01289223D03*
X01354323D03*
X01348678Y01173940D03*
X01378678D03*
X01446323Y00601223D03*
X01476323D03*
X01503012Y00743723D03*
X01533013D03*
G54D126*
X01178000Y00926973D03*
Y00945473D03*
X01135306Y01384473D03*
Y01365973D03*
X01557323Y00771472D03*
Y00752973D03*
X01483323Y00985973D03*
Y01004473D03*
X01158323Y01423473D03*
Y01404973D03*
G54D127*
X01289284Y01473223D03*
Y01429223D03*
G54D128*
X01195823Y01167783D03*
X01183123D03*
Y01230663D03*
X01195823D03*
G54D129*
X01163328Y01321223D03*
X01201427Y01375223D03*
X01188728D03*
X01176028D03*
X01163328D03*
X01201427Y01321223D03*
X01188728D03*
X01176028D03*
G54D130*
X01233845Y01067810D03*
X01221145D03*
X01208445D03*
X01195745D03*
X01183045D03*
X01170345D03*
X01157645D03*
X01144945D03*
X01233845Y01014470D03*
X01221145D03*
X01208445D03*
X01195745D03*
X01183045D03*
X01170345D03*
X01157645D03*
X01144945D03*
G54D131*
X01330090Y00624830D03*
Y00552830D03*
X01260323Y00679636D03*
Y00607636D03*
G54D132*
X01521092Y00695273D03*
X01575092Y00657173D03*
Y00669873D03*
Y00682573D03*
Y00695273D03*
X01521092Y00657173D03*
Y00669873D03*
Y00682573D03*
G54D133*
X01442431Y00557703D03*
G54D134*
X01442431Y00518453D03*
X01371681Y01122598D03*
G54D135*
X01404931Y00518456D03*
X01409181Y01122598D03*
G54D136*
X01404931Y00557703D03*
G54D133*
X01371681Y01083348D03*
G54D136*
X01409181Y01083348D03*
G54D137*
X01559180Y01101813D03*
X01630698Y00842598D03*
G54D138*
X01519931Y01101813D03*
X01591448Y00842598D03*
G54D139*
X01519931Y01139314D03*
X01591448Y00880098D03*
G54D140*
X01559180Y01139313D03*
X01630698Y00880098D03*
G54D141*
X01497806Y00515328D03*
Y00561328D03*
X01316306Y01125723D03*
Y01079723D03*
G54D142*
X01516806Y01046439D03*
X01562806D03*
X01588323Y00787223D03*
X01634323D03*
G54D143*
X01181576Y01267223D03*
G54D144*
X01190576Y01293223D03*
X01172576D03*
G54D117*
X00848107Y00933223D03*
Y00962223D03*
X00798323Y00933223D03*
Y00962223D03*
X00823489Y00933223D03*
Y00962223D03*
X00844992Y01475723D03*
Y01446723D03*
X00870216Y01475723D03*
Y01446723D03*
X00895439Y01475723D03*
Y01446723D03*
X00929239Y01473723D03*
Y01444723D03*
X00979323Y01473723D03*
Y01444723D03*
X00748862Y00933223D03*
Y00962223D03*
X00773323Y00933223D03*
Y00962223D03*
X00948014Y00616758D03*
Y00587758D03*
X00580323Y01443223D03*
Y01472223D03*
Y01401223D03*
Y01430223D03*
X00954323Y01473723D03*
Y01444723D03*
X00819769Y01475723D03*
Y01446723D03*
X00794546Y01475723D03*
Y01446723D03*
X00769323Y01475723D03*
Y01446723D03*
G54D118*
X00919463Y00883223D03*
Y00853223D03*
X00948323Y01545223D03*
Y01575223D03*
X01043823Y01039011D03*
Y01009011D03*
G54D119*
X00731806Y00791223D03*
X00760806D03*
X01081823Y00636223D03*
X01052823D03*
X01015971Y00974625D03*
X00986971D03*
X00854678Y01173971D03*
X00883677D03*
X00824823Y00795223D03*
X00853823D03*
X01052823Y00611223D03*
X01081823D03*
X01081663Y00561223D03*
X01052663D03*
X01081663Y00535828D03*
X01052663D03*
X01081823Y00586223D03*
X01052823D03*
X00845823Y00767223D03*
X00816823D03*
X00799806Y00762223D03*
X00770806D03*
X00757806D03*
X00728806D03*
X01008806Y00468723D03*
X00979806D03*
X00987823Y00443223D03*
X00958823D03*
X00802806Y00791223D03*
X00773806D03*
X00722823Y00904223D03*
X00751823D03*
X00697823Y00879223D03*
X00726823D03*
X00676323Y00904223D03*
X00705323D03*
X00994306Y00407223D03*
X00965306D03*
X01035823Y00435223D03*
X01006823D03*
G54D120*
X00622806Y00993945D03*
X00609806D03*
X00602025Y01122223D03*
X00615025D03*
X00588624Y01088223D03*
X00601623D03*
X00602024Y01156223D03*
X00615024D03*
X00640194Y01114223D03*
X00653193D03*
X00670823Y01110223D03*
X00683823D03*
X00670877Y01152223D03*
X00683877D03*
X00588936Y01105223D03*
X00601935D03*
X00640256Y01097640D03*
X00653256D03*
X00664378Y00990140D03*
X00677377D03*
X00670823Y01135223D03*
X00683823D03*
X00726323Y00956223D03*
X00713323D03*
X00684323Y01448029D03*
X00671323D03*
X00661193Y01248223D03*
X00648193D03*
X00633823Y01403223D03*
X00620823D03*
Y01420223D03*
X00633823D03*
X00684323Y01428223D03*
X00671323D03*
X00616306Y01248223D03*
X00629306D03*
X00597095Y01260887D03*
X00584095D03*
Y01279552D03*
X00597095D03*
X00683877Y01093640D03*
X00670878D03*
X00602024Y01139223D03*
X00615024D03*
X00979806Y00790223D03*
X00966806D03*
X00983806Y00598328D03*
X00996806D03*
X00927823Y00759223D03*
X00908823D03*
X00918323Y00779223D03*
X00849450Y00714223D03*
X00836450D03*
X00720152Y01353331D03*
X00733151D03*
X00983806Y00618973D03*
X00996806D03*
X00953823Y00718723D03*
X00940823D03*
X00927323Y00676223D03*
X00940323D03*
X00969823Y01003723D03*
X00982823D03*
X00927323Y00657173D03*
X00940323D03*
X00966806Y00718723D03*
X00979806D03*
X00940323Y00696223D03*
X00927323D03*
X00976823Y00562223D03*
X00989823D03*
X01003556Y00637223D03*
X00990556D03*
X01005823Y00718723D03*
X00992823D03*
X00622892Y00977223D03*
X00609892D03*
X00582823Y00994223D03*
X00595823D03*
X00582823Y00977223D03*
X00595823D03*
X01064823Y00759723D03*
X01077823D03*
X00656280Y01266223D03*
X00669280D03*
X00583823Y01238223D03*
X00596823D03*
X00609538Y00960223D03*
X00622538D03*
X00572232Y00907223D03*
X00585231D03*
X00849450Y00697223D03*
X00836450D03*
X00897823D03*
X00884823D03*
X00989323Y00523223D03*
X00976323D03*
G54D121*
X00653357Y01152723D03*
X00653358Y01139723D03*
X00728323Y01108723D03*
Y01095723D03*
X01018573Y00627630D03*
Y00640630D03*
X00894323Y00779723D03*
Y00766723D03*
X00602985Y00945717D03*
Y00926717D03*
X00582985Y00936217D03*
X00735323Y01326064D03*
X00715323Y01335564D03*
Y01316564D03*
X01013357Y01459686D03*
X01013358Y01446687D03*
X01030323D03*
Y01459686D03*
X01047783D03*
Y01446687D03*
X00585431Y01142473D03*
Y01155473D03*
G54D122*
X00730573Y01063223D03*
X00712073D03*
X00908073Y00718723D03*
X00926573D03*
X00743427Y01296223D03*
X00724928D03*
X00977166Y00543113D03*
X00995666D03*
X00633881Y01446723D03*
X00615382D03*
X00837073Y00677493D03*
X00855573D03*
G54D123*
X00925823Y00805223D03*
X00892823D03*
X00835823Y00744223D03*
X00868823D03*
X00973323Y00771223D03*
X00940323D03*
X00893806Y00740723D03*
X00926806D03*
X00600102Y00907223D03*
X00633102D03*
X00801823Y01349054D03*
X00768823D03*
X00702823Y01041206D03*
X00735823D03*
X01018613Y00757223D03*
X01051613D03*
X01009712Y00502732D03*
X00976713D03*
G54D124*
X00867323Y00693350D03*
Y00726350D03*
X00695555Y01324723D03*
Y01357723D03*
X00951092Y00976723D03*
Y01009723D03*
G54D125*
X00906323Y00671143D03*
X00876323D03*
X00623213Y00879223D03*
X00593213D03*
X00802960Y01566973D03*
X00772960D03*
X00769323Y01320223D03*
X00799323D03*
X00769323Y01289223D03*
X00799323D03*
X00793678Y01173940D03*
X00823678D03*
X00891323Y00601223D03*
X00921323D03*
X00948012Y00743723D03*
X00978013D03*
G54D126*
X00623000Y00926973D03*
Y00945473D03*
X00580306Y01384473D03*
Y01365973D03*
X01002323Y00771472D03*
Y00752973D03*
X00928323Y00985973D03*
Y01004473D03*
X00603323Y01423473D03*
Y01404973D03*
G54D127*
X00734284Y01473223D03*
Y01429223D03*
G54D128*
X00640823Y01167783D03*
X00628123D03*
Y01230663D03*
X00640823D03*
G54D129*
X00608328Y01321223D03*
X00646427Y01375223D03*
X00633728D03*
X00621028D03*
X00608328D03*
X00646427Y01321223D03*
X00633728D03*
X00621028D03*
G54D130*
X00678845Y01067810D03*
X00666145D03*
X00653445D03*
X00640745D03*
X00628045D03*
X00615345D03*
X00602645D03*
X00589945D03*
X00678845Y01014470D03*
X00666145D03*
X00653445D03*
X00640745D03*
X00628045D03*
X00615345D03*
X00602645D03*
X00589945D03*
G54D131*
X00775090Y00624830D03*
Y00552830D03*
X00705323Y00679636D03*
Y00607636D03*
G54D132*
X00966092Y00695273D03*
X01020092Y00657173D03*
Y00669873D03*
Y00682573D03*
Y00695273D03*
X00966092Y00657173D03*
Y00669873D03*
Y00682573D03*
G54D133*
X00887431Y00557703D03*
G54D134*
X00887431Y00518453D03*
X00816681Y01122598D03*
G54D135*
X00849931Y00518456D03*
X00854181Y01122598D03*
G54D136*
X00849931Y00557703D03*
G54D133*
X00816681Y01083348D03*
G54D136*
X00854181Y01083348D03*
G54D137*
X01004180Y01101813D03*
X01075698Y00842598D03*
G54D138*
X00964931Y01101813D03*
X01036448Y00842598D03*
G54D139*
X00964931Y01139314D03*
X01036448Y00880098D03*
G54D140*
X01004180Y01139313D03*
X01075698Y00880098D03*
G54D141*
X00942806Y00515328D03*
Y00561328D03*
X00761306Y01125723D03*
Y01079723D03*
G54D142*
X00961806Y01046439D03*
X01007806D03*
X01033323Y00787223D03*
X01079323D03*
G54D143*
X00626576Y01267223D03*
G54D144*
X00635576Y01293223D03*
X00617576D03*
G54D117*
X00293109Y00933223D03*
Y00962223D03*
X00243325Y00933223D03*
Y00962223D03*
X00268491Y00933223D03*
Y00962223D03*
X00289994Y01475723D03*
Y01446723D03*
X00315218Y01475723D03*
Y01446723D03*
X00340441Y01475723D03*
Y01446723D03*
X00374241Y01473723D03*
Y01444723D03*
X00424325Y01473723D03*
Y01444723D03*
X00193864Y00933223D03*
Y00962223D03*
X00218325Y00933223D03*
Y00962223D03*
X00393016Y00616758D03*
Y00587758D03*
X00025325Y01443223D03*
Y01472223D03*
Y01401223D03*
Y01430223D03*
X00399325Y01473723D03*
Y01444723D03*
X00264771Y01475723D03*
Y01446723D03*
X00239547Y01475723D03*
Y01446723D03*
X00214325Y01475723D03*
Y01446723D03*
G54D118*
X00364465Y00883223D03*
Y00853223D03*
X00393325Y01545223D03*
Y01575223D03*
X00488825Y01039011D03*
Y01009011D03*
G54D119*
X00176808Y00791223D03*
X00205808D03*
X00526823Y00636223D03*
X00497823D03*
X00460972Y00974625D03*
X00431973D03*
X00299680Y01173971D03*
X00328679D03*
X00269825Y00795223D03*
X00298825D03*
X00497823Y00611223D03*
X00526823D03*
X00526663Y00561223D03*
X00497663D03*
X00526663Y00535828D03*
X00497663D03*
X00526823Y00586223D03*
X00497823D03*
X00290824Y00767223D03*
X00261825D03*
X00244808Y00762223D03*
X00215808D03*
X00202808D03*
X00173808D03*
X00453808Y00468723D03*
X00424808D03*
X00432825Y00443223D03*
X00403825D03*
X00247808Y00791223D03*
X00218808D03*
X00167824Y00904223D03*
X00196825D03*
X00142825Y00879223D03*
X00171825D03*
X00121325Y00904223D03*
X00150325D03*
X00439308Y00407223D03*
X00410308D03*
X00480825Y00435223D03*
X00451825D03*
G54D120*
X00067808Y00993945D03*
X00054808D03*
X00047027Y01122223D03*
X00060027D03*
X00033626Y01088223D03*
X00046625D03*
X00047026Y01156223D03*
X00060026D03*
X00085195Y01114223D03*
X00098195D03*
X00115825Y01110223D03*
X00128825D03*
X00115879Y01152223D03*
X00128879D03*
X00033938Y01105223D03*
X00046936D03*
X00085258Y01097640D03*
X00098258D03*
X00109380Y00990140D03*
X00122379D03*
X00115825Y01135223D03*
X00128825D03*
X00171325Y00956223D03*
X00158325D03*
X00129325Y01448029D03*
X00116325D03*
X00106195Y01248223D03*
X00093195D03*
X00078825Y01403223D03*
X00065825D03*
Y01420223D03*
X00078825D03*
X00129325Y01428223D03*
X00116325D03*
X00061308Y01248223D03*
X00074308D03*
X00042097Y01260887D03*
X00029097D03*
Y01279552D03*
X00042097D03*
X00128879Y01093640D03*
X00115880D03*
X00047026Y01139223D03*
X00060026D03*
X00424808Y00790223D03*
X00411807D03*
X00428808Y00598328D03*
X00441808D03*
X00372825Y00759223D03*
X00353825D03*
X00363325Y00779223D03*
X00294452Y00714223D03*
X00281452D03*
X00165154Y01353331D03*
X00178153D03*
X00428808Y00618973D03*
X00441808D03*
X00398825Y00718723D03*
X00385825D03*
X00372325Y00676223D03*
X00385325D03*
X00414825Y01003723D03*
X00427825D03*
X00372325Y00657173D03*
X00385325D03*
X00411807Y00718723D03*
X00424808D03*
X00385325Y00696223D03*
X00372325D03*
X00421824Y00562223D03*
X00434825D03*
X00448558Y00637223D03*
X00435558D03*
X00450825Y00718723D03*
X00437825D03*
X00067894Y00977223D03*
X00054894D03*
X00027825Y00994223D03*
X00040824D03*
X00027825Y00977223D03*
X00040824D03*
X00509823Y00759723D03*
X00522823D03*
X00101282Y01266223D03*
X00114282D03*
X00028825Y01238223D03*
X00041824D03*
X00054540Y00960223D03*
X00067540D03*
X00017234Y00907223D03*
X00030233D03*
X00294452Y00697223D03*
X00281452D03*
X00342825D03*
X00329825D03*
X00434325Y00523223D03*
X00421325D03*
G54D121*
X00098359Y01152723D03*
X00098360Y01139723D03*
X00173325Y01108723D03*
Y01095723D03*
X00463575Y00627630D03*
Y00640630D03*
X00339325Y00779723D03*
Y00766723D03*
X00047987Y00945717D03*
Y00926717D03*
X00027987Y00936217D03*
X00180325Y01326064D03*
X00160325Y01335564D03*
Y01316564D03*
X00458359Y01459686D03*
X00458360Y01446687D03*
X00475325D03*
Y01459686D03*
X00492783D03*
Y01446687D03*
X00030433Y01142473D03*
Y01155473D03*
G54D122*
X00175575Y01063223D03*
X00157075D03*
X00353075Y00718723D03*
X00371575D03*
X00188429Y01296223D03*
X00169930D03*
X00422168Y00543113D03*
X00440668D03*
X00078883Y01446723D03*
X00060384D03*
X00282075Y00677493D03*
X00300575D03*
G54D123*
X00370825Y00805223D03*
X00337825D03*
X00280825Y00744223D03*
X00313825D03*
X00418325Y00771223D03*
X00385325D03*
X00338808Y00740723D03*
X00371808D03*
X00045104Y00907223D03*
X00078104D03*
X00246825Y01349054D03*
X00213825D03*
X00147825Y01041206D03*
X00180825D03*
X00463615Y00757223D03*
X00496613D03*
X00454714Y00502732D03*
X00421715D03*
G54D124*
X00312325Y00693350D03*
Y00726350D03*
X00140557Y01324723D03*
Y01357723D03*
X00396094Y00976723D03*
Y01009723D03*
G54D125*
X00351325Y00671143D03*
X00321325D03*
X00068215Y00879223D03*
X00038215D03*
X00247961Y01566973D03*
X00217962D03*
X00214325Y01320223D03*
X00244325D03*
X00214325Y01289223D03*
X00244325D03*
X00238680Y01173940D03*
X00268680D03*
X00336325Y00601223D03*
X00366325D03*
X00393014Y00743723D03*
X00423015D03*
G54D126*
X00068002Y00926973D03*
Y00945473D03*
X00025308Y01384473D03*
Y01365973D03*
X00447325Y00771472D03*
Y00752973D03*
X00373325Y00985973D03*
Y01004473D03*
X00048325Y01423473D03*
Y01404973D03*
G54D127*
X00179286Y01473223D03*
Y01429223D03*
G54D128*
X00085825Y01167783D03*
X00073125D03*
Y01230663D03*
X00085825D03*
G54D129*
X00053330Y01321223D03*
X00091429Y01375223D03*
X00078730D03*
X00066030D03*
X00053330D03*
X00091429Y01321223D03*
X00078730D03*
X00066030D03*
G54D130*
X00123847Y01067810D03*
X00111147D03*
X00098447D03*
X00085747D03*
X00073047D03*
X00060347D03*
X00047647D03*
X00034947D03*
X00123847Y01014470D03*
X00111147D03*
X00098447D03*
X00085747D03*
X00073047D03*
X00060347D03*
X00047647D03*
X00034947D03*
G54D131*
X00220092Y00624830D03*
Y00552830D03*
X00150325Y00679636D03*
Y00607636D03*
G54D132*
X00411093Y00695273D03*
X00465094Y00657173D03*
Y00669873D03*
Y00682573D03*
Y00695273D03*
X00411093Y00657173D03*
Y00669873D03*
Y00682573D03*
G54D133*
X00332432Y00557703D03*
G54D134*
X00332432Y00518453D03*
X00261683Y01122598D03*
G54D135*
X00294933Y00518456D03*
X00299183Y01122598D03*
G54D136*
X00294933Y00557703D03*
G54D133*
X00261683Y01083348D03*
G54D136*
X00299183Y01083348D03*
G54D137*
X00449182Y01101813D03*
X00520698Y00842598D03*
G54D138*
X00409933Y01101813D03*
X00481450Y00842598D03*
G54D139*
X00409933Y01139314D03*
X00481450Y00880098D03*
G54D140*
X00449182Y01139313D03*
X00520698Y00880098D03*
G54D141*
X00387808Y00515328D03*
Y00561328D03*
X00206308Y01125723D03*
Y01079723D03*
G54D142*
X00406808Y01046439D03*
X00452808D03*
X00478325Y00787223D03*
X00524323D03*
G54D143*
X00071578Y01267223D03*
G54D144*
X00080578Y01293223D03*
X00062578D03*
M02*