G04 Layer_Physical_Order=3*
G04 Layer_Color=16711680*
%FSAX44Y44*%
%MOMM*%
G71*
G01*
G75*
%ADD10P,1.0824X8X112.5*%
%ADD11P,1.0824X8X202.5*%
%ADD12C,2.0000*%
%ADD13C,1.5000*%
%ADD14C,0.5000*%
%ADD15C,1.0000*%
%ADD16C,0.3000*%
%ADD17C,3.0000*%
%ADD18C,2.5000*%
%ADD19C,0.2540*%
%ADD20C,3.0000*%
%ADD21C,2.5000*%
%ADD22C,2.0000*%
%ADD23C,1.0000*%
%ADD24C,3.6000*%
%ADD25C,2.8000*%
%ADD26C,4.5000*%
%ADD27R,2.8000X2.8000*%
%ADD28O,3.5000X3.0000*%
%ADD29R,3.5000X3.0000*%
%ADD30C,1.6000*%
%ADD31R,1.6000X1.6000*%
%ADD32C,0.9000*%
G36*
X01488479Y00201000D02*
X01492000Y00197000D01*
X01492000Y00135000D01*
X01484000Y00127000D01*
X01472330Y00127000D01*
X01470000Y00129330D01*
X01470000Y00199983D01*
X01471033Y00201016D01*
X01488479Y00201000D01*
D02*
G37*
G36*
X00642250Y00283468D02*
X00642250Y00234250D01*
X00577017Y00169017D01*
X00465266Y00169017D01*
X00460000Y00174284D01*
X00460000Y00272500D01*
X00465000Y00277625D01*
X00495166Y00277684D01*
X00514862Y00297379D01*
X00627023Y00297595D01*
X00642250Y00283468D01*
D02*
G37*
G36*
X01528520Y00192519D02*
X01530524Y00192783D01*
X01533574Y00194046D01*
X01536194Y00196056D01*
X01538204Y00198676D01*
X01538680Y00199826D01*
X01539926Y00200074D01*
X01550000Y00190000D01*
Y00098750D01*
X01548000Y00096583D01*
Y00069000D01*
X01536000Y00057000D01*
X01431000D01*
X01418000Y00044000D01*
X01399500Y00045000D01*
Y00052500D01*
X01437000Y00090000D01*
X01467479D01*
X01483000Y00105521D01*
X01483000Y00115500D01*
X01518369Y00150869D01*
X01518369Y00194573D01*
X01519508Y00195135D01*
X01520926Y00194046D01*
X01523977Y00192783D01*
X01525980Y00192519D01*
Y00205000D01*
X01528520D01*
Y00192519D01*
D02*
G37*
G36*
X01179019Y00188108D02*
X01179019Y00106457D01*
X01154896Y00082500D01*
X01064484D01*
X01049380Y00097500D01*
Y00190000D01*
X01050000D01*
X01062500Y00202500D01*
X01164527D01*
X01179019Y00188108D01*
D02*
G37*
G36*
X00744000Y00263000D02*
X00751000Y00256000D01*
Y00244411D01*
X00733027Y00226439D01*
X00731745Y00224767D01*
X00730939Y00222821D01*
X00730664Y00220733D01*
Y00204911D01*
X00729998Y00204043D01*
X00728990Y00201611D01*
X00728646Y00199000D01*
X00728990Y00196390D01*
X00729998Y00193957D01*
X00731601Y00191868D01*
X00733690Y00190265D01*
X00736122Y00189257D01*
X00738733Y00188914D01*
X00741343Y00189257D01*
X00743776Y00190265D01*
X00745865Y00191868D01*
X00747468Y00193957D01*
X00748475Y00196390D01*
X00748819Y00199000D01*
X00748475Y00201611D01*
X00747468Y00204043D01*
X00746802Y00204911D01*
Y00217390D01*
X00749827Y00220415D01*
X00751000Y00219929D01*
X00751000Y00076000D01*
X00722500Y00047500D01*
X00655500Y00047500D01*
X00640242Y00062758D01*
X00640728Y00063931D01*
X00678439D01*
X00679307Y00063265D01*
X00681740Y00062257D01*
X00684350Y00061914D01*
X00686961Y00062257D01*
X00689393Y00063265D01*
X00691482Y00064868D01*
X00693085Y00066957D01*
X00694093Y00069390D01*
X00694436Y00072000D01*
X00694093Y00074611D01*
X00693085Y00077043D01*
X00691482Y00079132D01*
X00689393Y00080735D01*
X00686961Y00081743D01*
X00684350Y00082086D01*
X00681740Y00081743D01*
X00679307Y00080735D01*
X00678439Y00080069D01*
X00622931D01*
X00614000Y00089000D01*
Y00094931D01*
X00679105D01*
X00680040Y00095054D01*
X00681105Y00094914D01*
X00683716Y00095257D01*
X00686148Y00096265D01*
X00688237Y00097868D01*
X00689840Y00099957D01*
X00690848Y00102389D01*
X00691191Y00105000D01*
X00690848Y00107611D01*
X00689840Y00110043D01*
X00688237Y00112132D01*
X00686148Y00113735D01*
X00683716Y00114743D01*
X00681105Y00115086D01*
X00678495Y00114743D01*
X00678199Y00114620D01*
X00677020Y00115506D01*
X00676743Y00117611D01*
X00675735Y00120043D01*
X00675069Y00120911D01*
Y00132000D01*
X00674794Y00134088D01*
X00673988Y00136034D01*
X00672706Y00137706D01*
X00664706Y00145706D01*
X00664706Y00145706D01*
X00660628Y00149783D01*
Y00191234D01*
X00693339Y00223945D01*
X00694622Y00225616D01*
X00695428Y00227563D01*
X00695703Y00229651D01*
Y00248703D01*
X00710000Y00263000D01*
X00744000Y00263000D01*
D02*
G37*
G36*
X01489374Y00295626D02*
Y00228391D01*
X01450000Y00189017D01*
X01450000Y00134000D01*
X01442000Y00126000D01*
X01435801D01*
X01427000Y00134800D01*
X01427000Y00187000D01*
X01427000Y00194000D01*
X01431166Y00198000D01*
X01438000Y00198000D01*
X01467500Y00227500D01*
Y00302500D01*
X01482500D01*
X01489374Y00295626D01*
D02*
G37*
G36*
X01450000Y00217931D02*
X01439219Y00207149D01*
X01428000Y00218368D01*
X01428000Y00346000D01*
X01450000D01*
Y00217931D01*
D02*
G37*
G36*
X01405000Y00286000D02*
Y00218000D01*
X01357795Y00170795D01*
Y00104205D01*
X01390000Y00072000D01*
Y00048000D01*
X01387000Y00045000D01*
X01373000D01*
X01360000Y00058000D01*
X01287000D01*
X01273000Y00044000D01*
X01267000D01*
X01260000Y00051000D01*
Y00132000D01*
X01368539Y00240539D01*
Y00276539D01*
X01386000Y00294000D01*
X01405000Y00286000D01*
D02*
G37*
G36*
X01172243Y00532259D02*
Y00433686D01*
X01156000Y00417443D01*
X01071384Y00417442D01*
X01056474Y00431650D01*
X01056946Y00432829D01*
X01110993D01*
X01111257Y00430821D01*
X01112265Y00428388D01*
X01113868Y00426299D01*
X01115957Y00424696D01*
X01118390Y00423688D01*
X01121000Y00423345D01*
X01123611Y00423688D01*
X01126043Y00424696D01*
X01128132Y00426299D01*
X01129735Y00428388D01*
X01130743Y00430821D01*
X01131086Y00433431D01*
X01130743Y00436041D01*
X01129735Y00438474D01*
X01128132Y00440563D01*
X01126043Y00442166D01*
X01123611Y00443174D01*
X01121000Y00443517D01*
X01120910Y00443506D01*
X01119534Y00444882D01*
X01118072Y00446004D01*
X01116369Y00446709D01*
X01114541Y00446950D01*
X01057895D01*
X01057743Y00448110D01*
X01056735Y00450543D01*
X01055132Y00452632D01*
X01053043Y00454235D01*
X01050611Y00455242D01*
X01048000Y00455586D01*
X01045389Y00455242D01*
X01042957Y00454235D01*
X01040868Y00452632D01*
X01039265Y00450543D01*
X01039162Y00450294D01*
X01037903Y00450128D01*
X01037132Y00451132D01*
X01035043Y00452735D01*
X01033810Y00453246D01*
X01006008Y00479738D01*
X01005993Y00481008D01*
X01013903Y00488918D01*
X01040313D01*
X01040368Y00488846D01*
X01042457Y00487243D01*
X01044890Y00486236D01*
X01047500Y00485892D01*
X01050110Y00486236D01*
X01052543Y00487243D01*
X01054632Y00488846D01*
X01056235Y00490935D01*
X01057243Y00493368D01*
X01057586Y00495978D01*
X01057243Y00498589D01*
X01056235Y00501021D01*
X01054632Y00503110D01*
X01052543Y00504713D01*
X01050110Y00505721D01*
X01047500Y00506064D01*
X01044890Y00505721D01*
X01042457Y00504713D01*
X01040368Y00503110D01*
X01040313Y00503039D01*
X01010978D01*
X01009151Y00502798D01*
X01007448Y00502093D01*
X01005986Y00500971D01*
X00984999Y00479984D01*
X00953000Y00449000D01*
X00923784D01*
X00923353Y00450270D01*
X00924132Y00450868D01*
X00925735Y00452957D01*
X00926743Y00455390D01*
X00926885Y00456474D01*
X00969206Y00498794D01*
X00970488Y00500466D01*
X00971294Y00502412D01*
X00971569Y00504500D01*
Y00517089D01*
X00972235Y00517957D01*
X00973243Y00520390D01*
X00973586Y00523000D01*
X00973243Y00525611D01*
X00972235Y00528043D01*
X00970632Y00530132D01*
X00968543Y00531735D01*
X00966111Y00532743D01*
X00963500Y00533086D01*
X00960890Y00532743D01*
X00958457Y00531735D01*
X00956368Y00530132D01*
X00954765Y00528043D01*
X00953757Y00525611D01*
X00953414Y00523000D01*
X00953757Y00520390D01*
X00954765Y00517957D01*
X00955431Y00517089D01*
Y00507842D01*
X00915474Y00467885D01*
X00914389Y00467743D01*
X00912597Y00467000D01*
X00873000D01*
X00858000Y00482000D01*
Y00508000D01*
X00901000Y00546942D01*
X01157560Y00546942D01*
X01172243Y00532259D01*
D02*
G37*
G36*
X01598301Y00112000D02*
Y00075301D01*
X01540000Y00017000D01*
X01459000D01*
X01458802Y00045802D01*
X01463474Y00050474D01*
X01536775D01*
X01538114Y00051813D01*
X01538146Y00051819D01*
X01539965Y00053035D01*
X01551965Y00065035D01*
X01553181Y00066854D01*
X01553187Y00066886D01*
X01563000Y00076699D01*
X01563000Y00110000D01*
X01571000Y00118000D01*
X01592301D01*
X01598301Y00112000D01*
D02*
G37*
G36*
X01154896Y00338640D02*
X01154896Y00245593D01*
X01130205Y00221073D01*
X01059944Y00221073D01*
X01037388Y00243473D01*
X01037490Y00345000D01*
X01047500Y00355010D01*
X01139151Y00355020D01*
X01154896Y00338640D01*
D02*
G37*
G36*
X01467500Y00528316D02*
X01467500Y00492405D01*
X01456635Y00481540D01*
X01455353Y00479869D01*
X01454547Y00477923D01*
X01454272Y00475834D01*
Y00446732D01*
X01454547Y00444644D01*
X01455353Y00442698D01*
X01456635Y00441027D01*
X01463613Y00434049D01*
X01467983Y00429000D01*
X01467500Y00385000D01*
X01450415Y00367915D01*
X01450363Y00363575D01*
X01437761D01*
X01434722Y00363276D01*
X01431800Y00362389D01*
X01429108Y00360950D01*
X01426747Y00359013D01*
X01424811Y00356653D01*
X01424287Y00355673D01*
X01423031Y00355487D01*
X01421000Y00357517D01*
X01398941D01*
X01398749Y00357620D01*
X01395073Y00358735D01*
X01391250Y00359112D01*
X01387428Y00358735D01*
X01383752Y00357620D01*
X01383559Y00357517D01*
X01380017D01*
X01367500Y00345000D01*
Y00335000D01*
X01347449D01*
Y00338971D01*
X01359989Y00351511D01*
X01359989Y00351511D01*
X01361672Y00353705D01*
X01362730Y00356259D01*
X01363091Y00359000D01*
X01363091Y00359000D01*
Y00365017D01*
X01362730Y00367758D01*
X01361672Y00370313D01*
X01359989Y00372506D01*
X01357795Y00374189D01*
X01355241Y00375247D01*
X01352500Y00375608D01*
X01349759Y00375247D01*
X01347205Y00374189D01*
X01345011Y00372506D01*
X01343328Y00370313D01*
X01342270Y00367758D01*
X01341909Y00365017D01*
Y00363387D01*
X01330665Y00352142D01*
X01329369Y00351148D01*
X01327686Y00348955D01*
X01326628Y00346401D01*
X01326268Y00343660D01*
X01326268Y00343659D01*
Y00335000D01*
X01289000D01*
X01274589Y00349411D01*
X01274589Y00399178D01*
X01231000Y00442766D01*
Y00528000D01*
X01257459Y00554459D01*
X01442665D01*
X01467500Y00528316D01*
D02*
G37*
%LPC*%
G36*
X01503730Y00093747D02*
X01490012D01*
X01490178Y00092069D01*
X01491038Y00089234D01*
X01492434Y00086621D01*
X01494314Y00084331D01*
X01496604Y00082451D01*
X01499217Y00081055D01*
X01502052Y00080195D01*
X01503730Y00080030D01*
Y00093747D01*
D02*
G37*
G36*
X01544988D02*
X01531270D01*
Y00080030D01*
X01532948Y00080195D01*
X01535783Y00081055D01*
X01538396Y00082451D01*
X01540686Y00084331D01*
X01542566Y00086621D01*
X01543962Y00089234D01*
X01544822Y00092069D01*
X01544988Y00093747D01*
D02*
G37*
G36*
X01506270Y00110005D02*
Y00095017D01*
Y00080030D01*
X01507948Y00080195D01*
X01510783Y00081055D01*
X01513396Y00082451D01*
X01515686Y00084331D01*
X01516865Y00085767D01*
X01518135D01*
X01519314Y00084331D01*
X01521604Y00082451D01*
X01524217Y00081055D01*
X01527052Y00080195D01*
X01528730Y00080030D01*
Y00095017D01*
Y00110005D01*
X01527052Y00109840D01*
X01524217Y00108980D01*
X01521604Y00107583D01*
X01519314Y00105704D01*
X01518135Y00104268D01*
X01516865D01*
X01515686Y00105704D01*
X01513396Y00107583D01*
X01510783Y00108980D01*
X01507948Y00109840D01*
X01506270Y00110005D01*
D02*
G37*
G36*
X01531270Y00110005D02*
Y00097868D01*
Y00096287D01*
X01544988D01*
X01544822Y00097966D01*
X01543962Y00100801D01*
X01542566Y00103413D01*
X01540686Y00105704D01*
X01538396Y00107583D01*
X01535783Y00108980D01*
X01532948Y00109840D01*
X01531270Y00110005D01*
D02*
G37*
G36*
X01503730D02*
X01502052Y00109840D01*
X01499217Y00108980D01*
X01496604Y00107583D01*
X01494314Y00105704D01*
X01492434Y00103413D01*
X01491038Y00100801D01*
X01490178Y00097966D01*
X01490012Y00096287D01*
X01503730D01*
Y00110005D01*
D02*
G37*
G36*
X01083000Y00480586D02*
X01080389Y00480243D01*
X01077957Y00479235D01*
X01075868Y00477632D01*
X01074265Y00475543D01*
X01073257Y00473111D01*
X01072914Y00470500D01*
X01073257Y00467890D01*
X01074265Y00465457D01*
X01075868Y00463368D01*
X01077957Y00461765D01*
X01080389Y00460757D01*
X01083000Y00460414D01*
X01083090Y00460426D01*
X01087734Y00455781D01*
X01087819Y00455354D01*
X01089035Y00453535D01*
X01091535Y00451035D01*
X01093354Y00449819D01*
X01095500Y00449392D01*
X01100500D01*
X01102646Y00449819D01*
X01104465Y00451035D01*
X01106965Y00453535D01*
X01107990Y00455069D01*
X01118813D01*
X01118868Y00454997D01*
X01120957Y00453395D01*
X01123390Y00452387D01*
X01126000Y00452043D01*
X01128611Y00452387D01*
X01131043Y00453395D01*
X01133132Y00454997D01*
X01134735Y00457086D01*
X01135743Y00459519D01*
X01136086Y00462130D01*
X01135743Y00464740D01*
X01134735Y00467173D01*
X01133132Y00469262D01*
X01131043Y00470864D01*
X01128611Y00471872D01*
X01126000Y00472216D01*
X01123390Y00471872D01*
X01120957Y00470864D01*
X01118868Y00469262D01*
X01118813Y00469190D01*
X01104129D01*
X01102646Y00470181D01*
X01100500Y00470608D01*
X01095500D01*
X01094334Y00470376D01*
X01094232Y00470386D01*
X01092976Y00471339D01*
X01092743Y00473111D01*
X01091735Y00475543D01*
X01090132Y00477632D01*
X01088043Y00479235D01*
X01085611Y00480243D01*
X01083000Y00480586D01*
D02*
G37*
G36*
X01578730Y00093747D02*
X01565012D01*
X01565178Y00092069D01*
X01566038Y00089234D01*
X01567434Y00086621D01*
X01569314Y00084331D01*
X01571604Y00082451D01*
X01574217Y00081055D01*
X01577052Y00080195D01*
X01578730Y00080030D01*
Y00093747D01*
D02*
G37*
G36*
X01594988D02*
X01581270D01*
Y00080030D01*
X01582948Y00080195D01*
X01585783Y00081055D01*
X01588396Y00082451D01*
X01590686Y00084331D01*
X01592566Y00086621D01*
X01593962Y00089234D01*
X01594822Y00092069D01*
X01594988Y00093747D01*
D02*
G37*
G36*
X01578730Y00110005D02*
X01577052Y00109840D01*
X01574217Y00108980D01*
X01571604Y00107583D01*
X01569314Y00105704D01*
X01567434Y00103413D01*
X01566038Y00100801D01*
X01565178Y00097966D01*
X01565012Y00096287D01*
X01578730D01*
Y00110005D01*
D02*
G37*
G36*
X01581270D02*
Y00096287D01*
X01594988D01*
X01594822Y00097966D01*
X01593962Y00100801D01*
X01592566Y00103413D01*
X01590686Y00105704D01*
X01588396Y00107583D01*
X01585783Y00108980D01*
X01582948Y00109840D01*
X01581270Y00110005D01*
D02*
G37*
G36*
X01439500Y00476377D02*
X01436889Y00476034D01*
X01434457Y00475026D01*
X01432368Y00473423D01*
X01430765Y00471334D01*
X01429757Y00468902D01*
X01429414Y00466291D01*
X01429757Y00463681D01*
X01430765Y00461248D01*
X01432368Y00459159D01*
X01434457Y00457556D01*
X01436889Y00456549D01*
X01439500Y00456205D01*
X01442110Y00456549D01*
X01444543Y00457556D01*
X01446632Y00459159D01*
X01448235Y00461248D01*
X01449243Y00463681D01*
X01449586Y00466291D01*
X01449243Y00468902D01*
X01448235Y00471334D01*
X01446632Y00473423D01*
X01444543Y00475026D01*
X01442110Y00476034D01*
X01439500Y00476377D01*
D02*
G37*
G36*
X01279000Y00550086D02*
X01276389Y00549743D01*
X01273957Y00548735D01*
X01271868Y00547132D01*
X01270265Y00545043D01*
X01269257Y00542611D01*
X01268914Y00540000D01*
X01269257Y00537389D01*
X01270265Y00534957D01*
X01271868Y00532868D01*
X01273957Y00531265D01*
X01276389Y00530257D01*
X01279000Y00529914D01*
X01279596Y00529992D01*
X01311294Y00498294D01*
X01312966Y00497012D01*
X01314912Y00496206D01*
X01317000Y00495931D01*
X01324460D01*
X01324946Y00494758D01*
X01301757Y00471569D01*
X01299176D01*
X01299132Y00471626D01*
X01297043Y00473229D01*
X01294610Y00474236D01*
X01292000Y00474580D01*
X01289389Y00474236D01*
X01286957Y00473229D01*
X01284868Y00471626D01*
X01283975Y00470462D01*
X01282705Y00470893D01*
Y00483083D01*
X01282430Y00485171D01*
X01281624Y00487117D01*
X01280341Y00488788D01*
X01256597Y00512532D01*
X01256093Y00513189D01*
X01254004Y00514792D01*
X01253923Y00514826D01*
X01253889Y00514852D01*
X01251943Y00515658D01*
X01251901Y00515663D01*
X01251572Y00515800D01*
X01248961Y00516143D01*
X01246351Y00515800D01*
X01243918Y00514792D01*
X01241829Y00513189D01*
X01240226Y00511100D01*
X01239219Y00508668D01*
X01238875Y00506057D01*
X01239219Y00503447D01*
X01240226Y00501014D01*
X01241829Y00498925D01*
X01243918Y00497322D01*
X01246351Y00496315D01*
X01248961Y00495971D01*
X01250176Y00496131D01*
X01266567Y00479740D01*
Y00463130D01*
X01266842Y00461041D01*
X01267648Y00459095D01*
X01268930Y00457424D01*
X01277294Y00449059D01*
X01278966Y00447777D01*
X01280912Y00446971D01*
X01281830Y00446850D01*
X01282257Y00446110D01*
X01281914Y00443500D01*
X01282257Y00440890D01*
X01283265Y00438457D01*
X01284868Y00436368D01*
X01286957Y00434765D01*
X01289389Y00433757D01*
X01292000Y00433414D01*
X01294610Y00433757D01*
X01297043Y00434765D01*
X01297603Y00435195D01*
X01298552Y00434246D01*
X01300371Y00433031D01*
X01302517Y00432604D01*
X01307517D01*
X01309663Y00433031D01*
X01311482Y00434246D01*
X01312667Y00435431D01*
X01354924D01*
X01357012Y00435706D01*
X01358958Y00436512D01*
X01360629Y00437794D01*
X01370206Y00447371D01*
X01371488Y00449042D01*
X01372294Y00450988D01*
X01372569Y00453077D01*
Y00462658D01*
X01379758Y00469846D01*
X01380931Y00469360D01*
Y00454766D01*
X01381206Y00452678D01*
X01382012Y00450732D01*
X01383294Y00449060D01*
X01395560Y00436794D01*
X01397231Y00435512D01*
X01399178Y00434706D01*
X01401266Y00434431D01*
X01408589D01*
X01409457Y00433765D01*
X01411889Y00432757D01*
X01414500Y00432414D01*
X01417110Y00432757D01*
X01419543Y00433765D01*
X01421632Y00435368D01*
X01423235Y00437457D01*
X01424243Y00439889D01*
X01424586Y00442500D01*
X01424243Y00445111D01*
X01423235Y00447543D01*
X01421632Y00449632D01*
X01419543Y00451235D01*
X01417110Y00452243D01*
X01414500Y00452586D01*
X01411889Y00452243D01*
X01409457Y00451235D01*
X01408589Y00450569D01*
X01404608D01*
X01400294Y00454883D01*
X01401013Y00455960D01*
X01401190Y00455887D01*
X01403800Y00455543D01*
X01406411Y00455887D01*
X01408843Y00456895D01*
X01410932Y00458498D01*
X01412535Y00460587D01*
X01413543Y00463019D01*
X01413886Y00465630D01*
X01413543Y00468240D01*
X01413137Y00469220D01*
X01431790Y00487872D01*
X01441000D01*
X01443088Y00488147D01*
X01445034Y00488954D01*
X01446706Y00490236D01*
X01455891Y00499421D01*
X01457151Y00499943D01*
X01459240Y00501546D01*
X01460843Y00503635D01*
X01461850Y00506068D01*
X01462194Y00508678D01*
X01461850Y00511289D01*
X01460843Y00513721D01*
X01459240Y00515810D01*
X01457151Y00517413D01*
X01454718Y00518421D01*
X01452108Y00518764D01*
X01449497Y00518421D01*
X01447065Y00517413D01*
X01446723Y00517151D01*
X01445970Y00518132D01*
X01443881Y00519735D01*
X01441449Y00520743D01*
X01438838Y00521086D01*
X01436228Y00520743D01*
X01433795Y00519735D01*
X01432927Y00519069D01*
X01427000D01*
X01424912Y00518794D01*
X01422966Y00517988D01*
X01421294Y00516706D01*
X01406158Y00501569D01*
X01399861D01*
X01399024Y00502524D01*
X01399086Y00502995D01*
X01398743Y00505606D01*
X01397735Y00508039D01*
X01396132Y00510127D01*
X01394043Y00511730D01*
X01391611Y00512738D01*
X01389000Y00513082D01*
X01386389Y00512738D01*
X01383957Y00511730D01*
X01381868Y00510127D01*
X01380265Y00508039D01*
X01379257Y00505606D01*
X01378914Y00502995D01*
X01379257Y00500385D01*
X01380265Y00497952D01*
X01380960Y00497047D01*
X01381206Y00495177D01*
X01381517Y00494428D01*
X01359190Y00472101D01*
X01358721Y00472132D01*
X01356632Y00473735D01*
X01354199Y00474743D01*
X01351589Y00475086D01*
X01348978Y00474743D01*
X01346546Y00473735D01*
X01344457Y00472132D01*
X01342854Y00470043D01*
X01341846Y00467611D01*
X01341703Y00466526D01*
X01338011Y00462834D01*
X01317504D01*
X01317018Y00464007D01*
X01335941Y00482931D01*
X01347671D01*
X01349457Y00481561D01*
X01351889Y00480553D01*
X01354500Y00480209D01*
X01357110Y00480553D01*
X01359543Y00481561D01*
X01361632Y00483163D01*
X01363235Y00485252D01*
X01364243Y00487685D01*
X01364586Y00490295D01*
X01364243Y00492906D01*
X01363235Y00495339D01*
X01361632Y00497427D01*
X01359543Y00499030D01*
X01357110Y00500038D01*
X01354500Y00500382D01*
X01353552Y00500257D01*
X01352820Y00501211D01*
X01352838Y00501444D01*
X01353083Y00503302D01*
X01361374Y00511593D01*
X01362656Y00513264D01*
X01363462Y00515210D01*
X01363737Y00517299D01*
Y00521326D01*
X01373342Y00530931D01*
X01408708D01*
X01409457Y00530356D01*
X01411889Y00529349D01*
X01414500Y00529005D01*
X01417110Y00529349D01*
X01419543Y00530356D01*
X01421632Y00531959D01*
X01423235Y00534048D01*
X01424243Y00536481D01*
X01424586Y00539091D01*
X01424243Y00541702D01*
X01423235Y00544134D01*
X01421632Y00546223D01*
X01419543Y00547826D01*
X01417110Y00548834D01*
X01414500Y00549178D01*
X01411889Y00548834D01*
X01409457Y00547826D01*
X01408470Y00547069D01*
X01374285D01*
X01373957Y00547112D01*
X01373629Y00547069D01*
X01370000D01*
X01367911Y00546794D01*
X01365965Y00545988D01*
X01364294Y00544706D01*
X01349963Y00530374D01*
X01348680Y00528703D01*
X01347874Y00526757D01*
X01347599Y00524668D01*
Y00520641D01*
X01340735Y00513776D01*
X01340478Y00513743D01*
X01338045Y00512735D01*
X01337177Y00512069D01*
X01320342D01*
X01287994Y00544417D01*
X01287735Y00545043D01*
X01286132Y00547132D01*
X01284043Y00548735D01*
X01281611Y00549743D01*
X01279000Y00550086D01*
D02*
G37*
%LPD*%
D10*
X01098000Y00460000D02*
D03*
D11*
X01305017Y00443212D02*
D03*
D12*
X01580000Y00087321D02*
X01585679D01*
X01580000D02*
Y00095017D01*
X01573000Y00093000D02*
X01578679Y00087321D01*
X01586000Y00087642D02*
Y00096966D01*
X01578679Y00087321D02*
X01580000D01*
X01573000Y00093000D02*
Y00100000D01*
X01580000Y00079000D02*
Y00087321D01*
X01585679D02*
X01586000Y00087642D01*
X01573000Y00100000D02*
X01577983Y00095017D01*
X01580000D01*
Y00105318D01*
X01572000Y00071000D02*
X01580000Y00079000D01*
X01528000Y00204250D02*
X01539926Y00192324D01*
X01527250Y00205000D02*
X01528000Y00204250D01*
X01539926Y00189017D02*
Y00192324D01*
X01528000Y00190000D02*
Y00204250D01*
X00916000Y00203000D02*
X00922767Y00210218D01*
X00931000Y00219000D01*
X00811000Y00497227D02*
X00820491Y00506718D01*
X00811000Y00327000D02*
Y00497227D01*
X00899000Y00123569D02*
X00921000Y00101569D01*
X00905000Y00126000D02*
X00906000Y00125000D01*
X00905000Y00126000D02*
Y00154000D01*
X00908000Y00029000D02*
X00921000Y00042000D01*
X00849000Y00029000D02*
X00908000D01*
X00405000Y00185000D02*
X00418983D01*
X00417500Y00136517D02*
X00490000Y00064017D01*
X00348265Y00528002D02*
X00350000Y00526266D01*
X00347500Y00528766D02*
X00348265Y00528002D01*
X00270000Y00522352D02*
X00281850D01*
X00997500Y00226059D02*
X00997923D01*
X00383517Y00288517D02*
X00417500Y00322500D01*
X00345429Y00227517D02*
X00362483D01*
X00405000Y00185000D01*
X00417500Y00136517D02*
Y00183517D01*
Y00322500D02*
Y00377500D01*
X00287500Y00528002D02*
X00348265D01*
X00281850Y00522352D02*
X00287500Y00528002D01*
X00348265D02*
X00350000D01*
X01329000Y00104000D02*
X01380366Y00052634D01*
X01329000Y00104000D02*
Y00160000D01*
X01269200Y00101200D02*
X01391250Y00223250D01*
X01060000Y00043000D02*
X01073000D01*
X00991902Y00107500D02*
X01005000D01*
X01032000Y00071000D02*
X01060000Y00043000D01*
X01032000Y00071000D02*
Y00191982D01*
X00997923Y00226059D02*
X01032000Y00191982D01*
X01596527Y00348966D02*
Y00379000D01*
Y00348966D02*
X01606492Y00339000D01*
X01606527Y00338966D01*
X01480698Y00465861D02*
X01517000Y00429559D01*
X01557302Y00530139D02*
X01586861D01*
X01591101Y00497396D02*
Y00507864D01*
X01601000Y00517763D01*
X01586861Y00530139D02*
X01598000Y00519000D01*
X01502500Y00306000D02*
X01513027D01*
X01460500Y00348000D02*
X01502500Y00306000D01*
X01517000Y00380000D02*
Y00429559D01*
X01584000Y00490295D02*
X01591101Y00497396D01*
X00260000Y00257500D02*
X00291017Y00288517D01*
X00383517D01*
X01437761Y00348000D02*
X01460500D01*
X00916000Y00187000D02*
Y00200000D01*
X00714464Y00363000D02*
X00772000D01*
X00921000Y00077000D02*
Y00101569D01*
X00916000Y00184000D02*
Y00187000D01*
X00992483Y00107517D02*
X01004000D01*
X00921000Y00042000D02*
X00926735D01*
X00991735Y00107000D01*
X00901000Y00252500D02*
Y00262000D01*
X00880000Y00180000D02*
Y00209000D01*
X00901000Y00230000D01*
Y00242517D01*
Y00252500D01*
X00863509Y00348724D02*
Y00445282D01*
Y00348724D02*
X00897233Y00315000D01*
X00899000D01*
X00776000Y00029000D02*
X00848627D01*
X00717000D02*
X00730000D01*
X00742500D01*
X00776000D01*
X00823000Y00314517D02*
X00825500Y00312017D01*
X00828000Y00309517D01*
X00811000Y00327000D02*
X00824000Y00314000D01*
X00825500Y00309500D02*
Y00312017D01*
Y00312517D01*
X00828000Y00156793D02*
Y00288517D01*
Y00309517D01*
X00772000Y00363000D02*
X00825500Y00309500D01*
X00828000Y00156793D02*
X00830000Y00154793D01*
X00828000Y00288517D02*
X01056500D01*
X00830000Y00122000D02*
Y00154000D01*
X00880000Y00180000D02*
X00906000Y00154000D01*
X00916000Y00184000D02*
X00992483Y00107517D01*
X00991735Y00107000D02*
X00992483D01*
D13*
X01449000Y00011000D02*
X01473000Y00035000D01*
X01505000Y00094000D02*
X01506000Y00095000D01*
X00186295Y00458795D02*
X00207500D01*
X00208370D01*
X01380366Y00032000D02*
Y00052634D01*
X01405766Y00041766D02*
X01434000Y00070000D01*
X01481000D01*
X01505000Y00094000D01*
X01269200Y00032000D02*
Y00097200D01*
X01271000Y00099000D01*
X00146500Y00419000D02*
X00186295Y00458795D01*
X00056807Y00432192D02*
X00070000Y00419000D01*
X00146500D01*
X00060000Y00252500D02*
X00154000D01*
X00210000Y00308500D01*
Y00336017D01*
X01294600Y00018400D02*
X01302000Y00011000D01*
X01294600Y00018400D02*
Y00032000D01*
X01302000Y00011000D02*
X01449000D01*
X01473000Y00035000D02*
X01490000D01*
D14*
X01405766Y00041766D02*
Y00068966D01*
Y00032000D02*
Y00041766D01*
X00738733Y00220733D02*
X00763148Y00245148D01*
Y00245000D02*
Y00245148D01*
X00800000Y00030000D02*
X00806250Y00036250D01*
X01294500Y00463500D02*
X01305099D01*
X01392766Y00493500D02*
X01409500D01*
X01332599Y00491000D02*
X01354199D01*
X01305099Y00463500D02*
X01332599Y00491000D01*
X01354924Y00443500D02*
X01364500Y00453077D01*
X01403800Y00466291D02*
Y00471294D01*
X01401266Y00442500D02*
X01414500D01*
X01364500Y00453077D02*
Y00466000D01*
X01392000Y00493500D01*
X01392766D01*
X01283000Y00454765D02*
X01341354D01*
X01351589Y00465000D01*
X01294219Y00443500D02*
X01354924D01*
X01355668Y00524668D02*
X01370000Y00539000D01*
X01373914D01*
X01537000Y00353000D02*
X01581034Y00308966D01*
X01606527D01*
X01498444Y00353000D02*
X01537000D01*
X01483409Y00368034D02*
X01498444Y00353000D01*
X01483409Y00368034D02*
Y00425664D01*
X01462341Y00446732D02*
X01483409Y00425664D01*
X01440610Y00467000D02*
X01440610Y00467000D01*
X00541105Y00072000D02*
X00684350D01*
X00527105Y00086000D02*
X00541105Y00072000D01*
X00738733Y00199000D02*
Y00220733D01*
X00667000Y00115000D02*
X00667500Y00115500D01*
X00659000Y00140000D02*
X00667000Y00132000D01*
Y00115086D02*
Y00132000D01*
X00478000Y00116000D02*
X00642223D01*
X00652559Y00126336D01*
X00659000Y00140000D02*
Y00140000D01*
X00652559Y00146441D02*
X00659000Y00140000D01*
X00652559Y00146441D02*
Y00194576D01*
X00878000Y00244000D02*
Y00268000D01*
X00847000Y00213000D02*
X00878000Y00244000D01*
X01274636Y00463130D02*
X01283000Y00454765D01*
X01274636Y00463130D02*
Y00483083D01*
X01279000Y00540000D02*
X01281000D01*
X01317000Y00504000D02*
X01343088D01*
X01281000Y00540000D02*
X01317000Y00504000D01*
X01343088D02*
Y00504719D01*
X01355668Y00517299D01*
Y00524668D01*
X01389000Y00454766D02*
Y00477000D01*
X01390500D01*
X01389000Y00454766D02*
X01401266Y00442500D01*
X01389000Y00497266D02*
X01392766Y00493500D01*
X01389000Y00497266D02*
Y00502995D01*
X01373914Y00539000D02*
X01373957Y00539043D01*
X01409500Y00493500D02*
X01427000Y00511000D01*
X01403800Y00471294D02*
X01428448Y00495941D01*
X01427000Y00511000D02*
X01438838D01*
X01439500D01*
X01373914Y00539000D02*
X01414500D01*
X00963500Y00504500D02*
Y00523000D01*
X01428448Y00495941D02*
X01441000D01*
X01452108Y00507049D01*
Y00508678D01*
X00667819Y00288169D02*
X00687634D01*
X00652559Y00194576D02*
X00687634Y00229651D01*
Y00288169D01*
X00490000Y00318017D02*
X00637893D01*
X00667780Y00288130D01*
X00667819Y00288169D01*
X01405766Y00068966D02*
X01434000Y00097200D01*
X01433200Y00098000D02*
X01434000Y00097200D01*
X01432000Y00098000D02*
X01433200D01*
X00776000Y00029000D02*
X00777000Y00030000D01*
X01462341Y00446732D02*
Y00475834D01*
X01478000Y00491493D01*
Y00510794D01*
X00679105Y00103000D02*
X00681105Y00105000D01*
X00534000Y00103000D02*
X00679105D01*
X01249855Y00507864D02*
X01274636Y00483083D01*
X01248961Y00506970D02*
X01249855Y00507864D01*
X01248961Y00506057D02*
Y00506970D01*
X00917000Y00458000D02*
X00963500Y00504500D01*
X00788145Y00168155D02*
Y00240000D01*
D15*
X00547354Y00383354D02*
X00568848D01*
X00518000Y00354000D02*
X00547354Y00383354D01*
X00418983Y00185000D02*
X00445000Y00211017D01*
X00417500Y00183517D02*
X00418983Y00185000D01*
X01477000Y00162000D02*
Y00174017D01*
X01442341Y00281098D02*
X01442360Y00281079D01*
X01478360Y00279087D02*
X01478841Y00279568D01*
X01336858Y00296000D02*
Y00343660D01*
X01337009Y00343509D01*
X01352500Y00359000D01*
Y00365017D01*
X01605527Y00339000D02*
X01606492D01*
X01607027D01*
X01445500Y00192500D02*
X01472500Y00219500D01*
X01441000Y00162500D02*
Y00171961D01*
X01442000Y00186961D02*
X01478000Y00222961D01*
X01474859Y00281098D02*
X01478811Y00285050D01*
X01479341Y00283050D02*
Y00284521D01*
X01478811Y00285050D02*
X01479341Y00284521D01*
X00445000Y00211017D02*
Y00326000D01*
X00473000Y00354000D01*
X00518000D01*
X00569000Y00383354D02*
X00580848D01*
X00581000D02*
Y00383507D01*
X00580848Y00383354D02*
X00581000Y00383507D01*
D16*
X01095622Y00457878D02*
X01099873Y00462130D01*
X01048000Y00443500D02*
X01051610Y00439889D01*
X01048000Y00443500D02*
Y00445500D01*
X01114541Y00439889D02*
X01121000Y00433431D01*
X01051610Y00439889D02*
X01114541D01*
X01039465Y00395535D02*
X01040000Y00395000D01*
X01039465Y00395535D02*
Y00405000D01*
X01030000Y00414465D02*
Y00444000D01*
Y00414465D02*
X01039465Y00405000D01*
X01099873Y00462130D02*
X01126000D01*
X01083000Y00470500D02*
X01095622Y00457878D01*
X00990000Y00460000D02*
X00998750Y00451250D01*
X00955000Y00427446D02*
Y00440000D01*
X01010978Y00495978D01*
X01047500D01*
X00998750Y00340017D02*
Y00451250D01*
X00903000Y00346000D02*
X00924000Y00325000D01*
Y00290000D02*
Y00325000D01*
D17*
X01391250Y00222961D02*
Y00223250D01*
Y00223517D02*
Y00281517D01*
X01505000Y00095017D02*
X01530000D01*
D18*
X01505000Y00094000D02*
Y00095017D01*
D19*
X01585000Y00555000D02*
X01637483D01*
Y00507517D02*
Y00554983D01*
X01585000Y00000000D02*
X01637483D01*
X01637500Y00000017D02*
Y00047517D01*
X00047483Y00555000D02*
X00047483Y00555000D01*
X00000000Y00502517D02*
X00000000Y00502517D01*
X00000000Y00502517D02*
Y00555000D01*
X00047483D01*
X00000017Y00000017D02*
Y00047483D01*
Y00000000D02*
X00052500D01*
D20*
X00831000Y00122132D02*
D03*
X00906000D02*
D03*
X00881000Y00122000D02*
D03*
D21*
X00863509Y00445282D02*
D03*
X00820491Y00506718D02*
D03*
X01530000Y00095017D02*
D03*
X01580000D02*
D03*
X01505000D02*
D03*
X00898000Y00314517D02*
D03*
X00823000Y00314517D02*
D03*
X00905000Y00154000D02*
D03*
X00830000Y00154000D02*
D03*
X00714464Y00363431D02*
D03*
X00714464Y00513431D02*
D03*
X00058000Y00254000D02*
D03*
X00258000D02*
D03*
Y00029000D02*
D03*
X00058000D02*
D03*
X00282500Y00458795D02*
D03*
X00207500D02*
D03*
X00283370Y00409493D02*
D03*
X00208370D02*
D03*
X00485500Y00462500D02*
D03*
X00509500Y00387500D02*
D03*
X00972000Y00041000D02*
D03*
X01072000D02*
D03*
X00129805Y00451588D02*
D03*
X00052195Y00438259D02*
D03*
X00417500Y00183517D02*
D03*
Y00033517D02*
D03*
Y00377039D02*
D03*
Y00227039D02*
D03*
X00207500Y00336233D02*
D03*
X00357500D02*
D03*
X00350000Y00436266D02*
D03*
Y00526266D02*
D03*
D22*
X01527250Y00205000D02*
D03*
X01527414Y00275741D02*
D03*
X01599750Y00275000D02*
D03*
Y00205000D02*
D03*
X01580682Y00489240D02*
D03*
X01563318Y00390760D02*
D03*
X00921000Y00042000D02*
D03*
X00921000Y00077000D02*
D03*
X00430000Y00536000D02*
D03*
X00430000Y00436000D02*
D03*
X00565000Y00536000D02*
D03*
X00565000Y00436000D02*
D03*
X01606527Y00308966D02*
D03*
Y00338966D02*
D03*
X01523509Y00306233D02*
D03*
Y00336233D02*
D03*
X01480698Y00465861D02*
D03*
X01557302Y00530139D02*
D03*
X01207500Y00040000D02*
D03*
X01107500D02*
D03*
X00054750Y00377000D02*
D03*
X00054750Y00307000D02*
D03*
X00127250Y00307000D02*
D03*
Y00377000D02*
D03*
D23*
X01527250Y00240000D02*
D03*
D24*
X01158000Y00039000D02*
D03*
X01219250Y00274000D02*
D03*
X01562500Y00240000D02*
D03*
X01220000Y00210500D02*
D03*
X00100000Y00514000D02*
D03*
X01198000Y00523000D02*
D03*
X01197500Y00419767D02*
D03*
X01296500Y00210000D02*
D03*
X00201000Y00520000D02*
D03*
X00245000Y00458795D02*
D03*
X00569000Y00486000D02*
D03*
X00619000Y00461000D02*
D03*
X00427000Y00483500D02*
D03*
X00179000Y00085000D02*
D03*
X00352500Y00480008D02*
D03*
X00497500Y00424494D02*
D03*
X01295000Y00274000D02*
D03*
X00245000Y00405000D02*
D03*
X00377000Y00411585D02*
D03*
X00645000Y00524000D02*
D03*
X00668000Y00461000D02*
D03*
X00303000Y00042000D02*
D03*
X01170000Y00387000D02*
D03*
X01341439Y00250000D02*
D03*
X00754500Y00413500D02*
D03*
X00100000Y00181084D02*
D03*
X00226000Y00182084D02*
D03*
X00161000Y00146395D02*
D03*
X00100000Y00108084D02*
D03*
X00231000Y00109852D02*
D03*
X00031000Y00344000D02*
D03*
X00098000Y00357000D02*
D03*
X00170000Y00339084D02*
D03*
X01220000Y00149017D02*
D03*
Y00088017D02*
D03*
X01518500Y00498500D02*
D03*
X01575000Y00454765D02*
D03*
X00768500Y00515500D02*
D03*
D25*
X01391250Y00397517D02*
D03*
Y00339517D02*
D03*
Y00281517D02*
D03*
Y00223517D02*
D03*
Y00165517D02*
D03*
Y00107517D02*
D03*
X00998750Y00224017D02*
D03*
Y00340017D02*
D03*
X00718000Y00318017D02*
D03*
X00680000Y00318017D02*
D03*
X00490000Y00064017D02*
D03*
X00718000D02*
D03*
D26*
X01600000Y00381484D02*
D03*
X01518027D02*
D03*
X01600000Y00521477D02*
D03*
X00288000Y00520017D02*
D03*
X00042500Y00517763D02*
D03*
X00155706Y00520017D02*
D03*
X00249000D02*
D03*
D27*
X00490000Y00318017D02*
D03*
D28*
X00337500Y00075834D02*
D03*
Y00126834D02*
D03*
Y00177834D02*
D03*
D29*
Y00228834D02*
D03*
D30*
X01431166Y00032000D02*
D03*
X01405766D02*
D03*
X01320000D02*
D03*
X01294600D02*
D03*
D31*
X01380366D02*
D03*
X01269200D02*
D03*
D32*
X01434000Y00328833D02*
D03*
Y00350000D02*
D03*
X01485000Y00261900D02*
D03*
X01434000Y00265333D02*
D03*
X01487000Y00139000D02*
D03*
X01432000Y00154793D02*
D03*
X00923000Y00210000D02*
D03*
X00789000Y00239000D02*
D03*
X00763148Y00245000D02*
D03*
X00788145Y00168155D02*
D03*
X00941646Y00458130D02*
D03*
X00952000Y00467173D02*
D03*
X01048000Y00445500D02*
D03*
X01125000Y00448059D02*
D03*
X01074000Y00421722D02*
D03*
X00977000Y00541060D02*
D03*
X01039000Y00540500D02*
D03*
X00878732Y00473000D02*
D03*
X01071000Y00540500D02*
D03*
X01108000D02*
D03*
X01154000Y00542735D02*
D03*
X01168000Y00514229D02*
D03*
X01165063Y00452500D02*
D03*
X01121000Y00433431D02*
D03*
X01034000Y00510000D02*
D03*
X01427000Y00455000D02*
D03*
X01292651Y00547000D02*
D03*
X01449000Y00455000D02*
D03*
X01040000Y00395000D02*
D03*
X01030000Y00444000D02*
D03*
X01126000Y00462130D02*
D03*
X01085000Y00449000D02*
D03*
X01083000Y00470500D02*
D03*
X00689250Y00128000D02*
D03*
X00681105Y00105000D02*
D03*
X01352500Y00365017D02*
D03*
X00579605Y00273112D02*
D03*
X01164750Y00103487D02*
D03*
X01092500Y00168311D02*
D03*
X01164750Y00134100D02*
D03*
X01165000Y00148310D02*
D03*
X01164750Y00119271D02*
D03*
X01122500Y00168311D02*
D03*
X01107500D02*
D03*
X01056251Y00274216D02*
D03*
X01056251Y00292215D02*
D03*
X01056251Y00309715D02*
D03*
X01056251Y00257215D02*
D03*
X00507105Y00283517D02*
D03*
X00527105Y00283533D02*
D03*
X00547105D02*
D03*
X00567270D02*
D03*
X00494012Y00273112D02*
D03*
Y00251017D02*
D03*
Y00230800D02*
D03*
Y00211017D02*
D03*
X00507105Y00201017D02*
D03*
X00527105D02*
D03*
X00547105D02*
D03*
X00567270D02*
D03*
X00579605Y00211017D02*
D03*
X00579667Y00230800D02*
D03*
X00579605Y00251017D02*
D03*
X01292000Y00443500D02*
D03*
X01354500Y00490295D02*
D03*
X01403800Y00465630D02*
D03*
X01414500Y00442500D02*
D03*
X00991902Y00107500D02*
D03*
X00990000Y00460000D02*
D03*
X01047500Y00495978D02*
D03*
X00955000Y00427446D02*
D03*
X01137500Y00168311D02*
D03*
X01125789Y00087250D02*
D03*
X01096750Y00087500D02*
D03*
X01110961Y00087250D02*
D03*
X01141574Y00087250D02*
D03*
X01165000Y00163311D02*
D03*
X01152500Y00168311D02*
D03*
X01075000Y00232500D02*
D03*
X01088750D02*
D03*
X01102500D02*
D03*
X01116250D02*
D03*
X01148751Y00257500D02*
D03*
X01148751Y00310000D02*
D03*
X01148751Y00292500D02*
D03*
X01148751Y00274500D02*
D03*
X01152500Y00187500D02*
D03*
X01137500D02*
D03*
X01107500D02*
D03*
X01122500D02*
D03*
X01092500D02*
D03*
X01130000Y00232500D02*
D03*
X01254000Y00427500D02*
D03*
X01305994Y00355942D02*
D03*
X01255000Y00543517D02*
D03*
X01382000Y00515439D02*
D03*
X00669000Y00193000D02*
D03*
X01336858Y00296000D02*
D03*
X01351589Y00465000D02*
D03*
X01278994Y00357089D02*
D03*
X00941000Y00542735D02*
D03*
X00906000Y00492936D02*
D03*
X00716944Y00029000D02*
D03*
X00730000D02*
D03*
X00742500D02*
D03*
X01005000Y00107500D02*
D03*
X01439500Y00466291D02*
D03*
X01462000Y00390955D02*
D03*
Y00403955D02*
D03*
Y00415955D02*
D03*
X01276533Y00408767D02*
D03*
X01338539Y00428767D02*
D03*
X01428705Y00402767D02*
D03*
X01378539Y00441767D02*
D03*
X01432000Y00191000D02*
D03*
Y00172896D02*
D03*
X01487000Y00195000D02*
D03*
X00581000Y00383354D02*
D03*
X00569000D02*
D03*
X00931000Y00219000D02*
D03*
X00916000Y00200000D02*
D03*
Y00187000D02*
D03*
X00685098Y00197517D02*
D03*
X00478000Y00116000D02*
D03*
X00615535Y00093000D02*
D03*
X00527105Y00086000D02*
D03*
X00684350Y00072000D02*
D03*
X00738733Y00199000D02*
D03*
X00653000Y00127000D02*
D03*
X00667000Y00115000D02*
D03*
X01302000Y00012000D02*
D03*
X01325500D02*
D03*
X01349000D02*
D03*
X01372500D02*
D03*
X01396000D02*
D03*
X01419500D02*
D03*
X01443000D02*
D03*
X01465770Y00044000D02*
D03*
Y00024000D02*
D03*
X01559000Y00063000D02*
D03*
X01540000Y00044000D02*
D03*
X01502885D02*
D03*
X01501885Y00024000D02*
D03*
X01538000D02*
D03*
X01129500Y00482494D02*
D03*
X00878000Y00268000D02*
D03*
X00847000Y00213000D02*
D03*
X00901000Y00262000D02*
D03*
Y00252500D02*
D03*
Y00242517D02*
D03*
X00903000Y00346000D02*
D03*
X00917000Y00458000D02*
D03*
X01279000Y00540000D02*
D03*
X01292000Y00464494D02*
D03*
X01343088Y00504000D02*
D03*
X01414500Y00539091D02*
D03*
X01389000Y00477000D02*
D03*
Y00502995D02*
D03*
X01438838Y00511000D02*
D03*
X01434000Y00286500D02*
D03*
Y00307667D02*
D03*
X01432000Y00136690D02*
D03*
X01487000Y00157667D02*
D03*
Y00176333D02*
D03*
X01434000Y00223000D02*
D03*
Y00244167D02*
D03*
X01485000Y00293000D02*
D03*
Y00277450D02*
D03*
Y00246350D02*
D03*
Y00230800D02*
D03*
X00963500Y00523000D02*
D03*
X01452108Y00508678D02*
D03*
X00687634Y00288169D02*
D03*
X01432000Y00098000D02*
D03*
X00742000Y00257215D02*
D03*
X00740000Y00175633D02*
D03*
X01317472Y00547000D02*
D03*
X01342293D02*
D03*
X01096000Y00482000D02*
D03*
X01478000Y00510794D02*
D03*
X00534000Y00103000D02*
D03*
X01248961Y00506057D02*
D03*
M02*
